<?xml version="1.0" encoding="utf-8"?>
<!-- Generator: Adobe Illustrator 16.0.0, SVG Export Plug-In . SVG Version: 6.00 Build 0)  -->
<!DOCTYPE svg PUBLIC "-//W3C//DTD SVG 1.1//EN" "http://www.w3.org/Graphics/SVG/1.1/DTD/svg11.dtd">
<svg version="1.1" id="Layer_2" xmlns="http://www.w3.org/2000/svg" xmlns:xlink="http://www.w3.org/1999/xlink" x="0px" y="0px"
	 width="210px" height="365px" viewBox="0 0 210 365" enable-background="new 0 0 210 365" xml:space="preserve">
<rect y="0.5" fill="#F2F2F2" width="210" height="365"/>
<g>
	<g>
		<g>
			<path fill-rule="evenodd" clip-rule="evenodd" fill="#333333" d="M105.885,29.319c0.102,0,0.205,0,0.305,0
				c0.205,0.139,0.402,0.296,0.62,0.412c12.57,6.707,25.145,13.409,37.717,20.11c0.197,0.104,0.412,0.17,0.619,0.254
				c0,0.051,0,0.102,0,0.153c-2.318,1.258-4.643,2.505-6.943,3.792c-0.17,0.095-0.258,0.465-0.26,0.707
				c-0.02,2.112-0.025,4.226,0.006,6.338c0.004,0.271,0.178,0.618,0.387,0.797c0.979,0.827,1.135,2.133,0.316,3.033
				c-0.793,0.868-2.197,0.872-2.99,0.009c-0.842-0.914-0.703-2.183,0.271-3.034c0.223-0.195,0.398-0.571,0.408-0.869
				c0.043-1.349,0.02-2.698,0.02-4.049c0-0.594,0-1.188,0-1.94c-2.299,1.415-4.439,2.727-6.57,4.05
				c-0.107,0.066-0.215,0.236-0.217,0.358c-0.01,1.907-0.076,3.819,0.035,5.72c0.039,0.682-0.072,1.197-0.586,1.51
				c-0.818,0.499-1.674,0.982-2.574,1.285c-3.543,1.189-7.232,1.678-10.934,1.969c-8.266,0.648-16.522,0.604-24.733-0.74
				c-2.283-0.373-4.557-0.818-6.666-1.83c-1.039-0.497-1.83-1.063-1.639-2.529c0.207-1.602,0.014-3.252,0.055-4.88
				c0.016-0.572-0.199-0.848-0.672-1.12c-4.803-2.763-9.594-5.55-14.391-8.325c-0.172-0.1-0.359-0.168-0.539-0.25
				c0-0.052,0-0.103,0-0.153c0.186-0.069,0.381-0.118,0.553-0.211C80.1,43.157,92.717,36.426,105.33,29.691
				C105.525,29.588,105.701,29.445,105.885,29.319z M108.351,62.592c-7.903,0.142-13.528,0.244-19.079,1.27
				c-1.211,0.225-2.393,0.645-3.566,1.042c-0.256,0.086-0.578,0.459-0.572,0.695c0.002,0.24,0.326,0.558,0.588,0.694
				c0.488,0.255,1.023,0.448,1.559,0.591c3.338,0.888,6.758,1.177,10.186,1.381c7.426,0.443,14.853,0.42,22.247-0.479
				c2.082-0.254,4.135-0.781,6.18-1.273c0.416-0.101,0.732-0.608,1.096-0.927c-0.367-0.315-0.688-0.802-1.109-0.915
				c-1.639-0.445-3.291-0.95-4.969-1.106C115.974,63.1,111.026,62.793,108.351,62.592z M129.003,54.731
				c0.141-1.521,0.059-1.665-1.15-2.664c-2.547-2.108-5.537-3.27-8.682-4.103c-4.186-1.107-8.465-1.466-12.772-1.477
				c-5.256-0.014-10.467,0.412-15.504,2.071c-2.629,0.865-5.076,2.06-7.164,3.935c-0.701,0.63-0.83,1.319-0.645,2.18
				c0.803-0.57,1.549-1.178,2.363-1.668c3.326-1.999,7.01-2.956,10.803-3.502c6.102-0.876,12.224-0.924,18.337-0.159
				C119.776,49.995,124.796,51.177,129.003,54.731z"/>
			<g>
				<path fill-rule="evenodd" clip-rule="evenodd" fill="#EE4156" d="M139.128,75.103c-2.193-0.604-3.244,0.91-4.494,2.397
					c0.285-3.893,0.559-7.594,0.824-11.227c1.252,0,2.434,0,3.67,0C139.128,69.096,139.128,72.077,139.128,75.103z"/>
			</g>
		</g>
	</g>
	<g>
		<g>
			<g>
				<path fill="#333333" d="M61.135,80.071v4.455h-1.357v9.624l-2.994,2.995h-6.271l-2.971-2.995v-9.624h-1.33v-4.455h7.117v4.3
					h-0.666v8.295h2.047v-8.295h-0.664v-4.3H61.135z M59.623,81.532H55.4v1.56h0.818v10.085l-0.973,0.974h-3.174l-0.922-0.974
					V83.092h0.82v-1.56h-4.225v1.56h1.33v10.419l2.074,2.15h4.965l2.15-2.048V83.092h1.357V81.532z"/>
				<path fill="#333333" d="M79.156,80.071v4.455h-1.178v12.619h-4.48l-4.607-8.549v4.172h1.355v4.377h-6.885v-4.479h1.203v-8.14
					h-1.203v-4.455h6.195l4.094,7.68v-3.404h-1.203v-4.275H79.156z M77.645,81.532h-3.787v1.56h1.049v9.677l-6.297-11.236h-3.713
					v1.56H66.1V94.15h-1.203v1.511h3.918V94.15h-1.178V83.604l6.758,12.058h2.072V83.092h1.178V81.532z"/>
				<path fill="#333333" d="M88.908,80.071v4.455H87.73v8.14h1.178v4.479h-7.449v-4.479h1.178v-8.14h-1.178v-4.455H88.908z
					 M87.398,81.532h-4.402v1.56h1.15V94.15h-1.15v1.511h4.402V94.15h-1.178V83.092h1.178V81.532z"/>
				<path fill="#333333" d="M106.418,80.071v4.455h-1.768l-3.992,12.619h-4.25l-4.172-12.619h-1.766v-4.455h7.447v4.455h-0.846
					l1.41,4.3l1.357-4.3h-0.871v-4.455H106.418z M105.086,81.532h-4.607v1.56h1.254l-3.225,10.112l-3.301-10.112h1.201v-1.56h-4.43
					v1.56h1.408l4.121,12.569h1.998l4.018-12.569h1.563V81.532z"/>
				<path fill="#333333" d="M121.009,80.071v5.479h-4.584v-1.023h-2.199v1.817h4.045v4.352h-4.045v1.971h2.199v-1.228h4.584v5.707
					h-13.082v-4.479h1.18v-8.14h-1.18v-4.455H121.009z M119.474,81.532h-10.01v1.56h1.178V94.15h-1.178v1.511h10.01v-2.714h-1.537
					v1.203h-5.273v-4.967h4.096v-1.381h-4.096v-4.711h5.273v0.999h1.537V81.532z"/>
				<path fill="#333333" d="M137.954,92.666v4.479h-6.809v-4.224h0.383l-0.996-2.176h-1.104v2.176h0.896v4.224h-7.012v-4.479h1.203
					v-8.14h-1.203v-4.455h10.367l2.891,2.944v4.787l-1.586,1.588l1.51,3.275H137.954z M136.495,94.125h-0.998l-2.305-4.941
					l1.869-1.843v-3.686l-2.1-2.123h-8.113v1.56h1.176v11.033h-1.176v1.536h4.07v-1.536h-0.846v-4.734h3.328l2.176,4.734h-0.947
					v1.536h3.865V94.125z M133.167,84.039v2.713l-1.074,1.076h-4.02v-4.736h4.121L133.167,84.039z M131.632,84.526h-2.021v1.766
					h2.021V84.526z"/>
				<path fill="#333333" d="M151.624,88.417v5.733l-3.047,2.995h-6.193l-2.842-2.893v-3.122h4.939v1.535h2.074v-2.432h-4.865
					l-2.277-2.355V82.99l2.971-2.919h6.348l2.688,2.739v2.815h-4.734v-1.1h-2.203v1.639h4.967L151.624,88.417z M150.138,89.031
					l-1.508-1.511h-5.07l-0.59-0.589v-2.893l0.975-0.947h3.225l0.896,0.947v0.258h2.072v-0.642l-2.072-2.123h-4.967l-2.15,2.123
					v3.636l1.563,1.586h5.016l0.539,0.59v3.686l-1.023,0.998h-3.098l-0.975-0.998v-0.717h-2.021v1.051l2.15,2.175h4.762l2.277-2.175
					V89.031z"/>
				<path fill="#333333" d="M161.351,80.071v4.455h-1.178v8.14h1.178v4.479h-7.449v-4.479h1.178v-8.14h-1.178v-4.455H161.351z
					 M159.841,81.532h-4.404v1.56h1.154V94.15h-1.154v1.511h4.404V94.15h-1.178V83.092h1.178V81.532z"/>
				<path fill="#333333" d="M177.784,80.071v6.247h-3.967v-1.792h-0.846v8.14h1.23v4.479h-7.475v-4.479h1.229v-8.14h-0.742v1.792
					h-4.045v-6.247H177.784z M176.353,81.532h-11.725v3.377h1.381v-1.817h3.432V94.15h-1.205v1.511h4.457V94.15h-1.18V83.092h3.482
					v1.817h1.357V81.532z"/>
				<path fill="#333333" d="M192.991,80.071v4.455h-1.512l-3.248,6.169v1.971h1.201v4.479h-7.475v-4.479h1.203v-1.971l-3.252-6.169
					h-1.508v-4.455h6.809v4.199h-0.514l1.051,1.971l1.049-1.971h-0.512v-4.199H192.991z M191.479,81.532h-3.736v1.56h0.846
					l-2.867,5.479l-2.945-5.479h0.896v-1.56h-3.764v1.56h0.922l3.865,7.193v3.865h-1.201v1.511h4.428V94.15h-1.205v-3.865
					l3.816-7.193h0.945V81.532z"/>
			</g>
			<g>
				<g>
					<path fill="#333333" d="M23.605,99.122h2.052V92.97h-2.052V99.122z M21.042,83.398l1.52-1.197h1.559V80.15h-2.435l-2.694,2.37
						v11.682l2.841,2.869h0.749l0.055-2.052l-1.594-1.621V83.398z M27.578,80.15h-2.435v2.051H26.7l1.521,1.197v10l-1.595,1.621
						l0.055,2.052h0.749l2.841-2.869V82.521L27.578,80.15z"/>
				</g>
			</g>
			<g>
				<g>
					<path fill="#333333" d="M35.713,80.071h-3.621v2.069h1.552v12.936h-1.552v2.069h5.173v-2.069h-1.553V80.071z M43.113,95.076
						l-2.877-5.174h1.4l2.355-2.789v-4.872l-2.43-2.17h-4.814v2.069h3.879l1.295,1.035v3.42l-1.295,1.236h-3.879v2.07h1.258
						l2.867,5.174h-1.539v2.069h5.176v-2.069H43.113z"/>
				</g>
			</g>
		</g>
	</g>
</g>
<g>
	<g>
		<g>
			<path fill="#F06261" d="M193,211.5c0,2.762-2.238,5-5,5H22c-2.761,0-5-2.238-5-5v-24c0-2.762,2.239-5,5-5h166
				c2.762,0,5,2.238,5,5V211.5z"/>
		</g>
		<g>
			<g>
				<path fill="#EBEBEB" d="M54.289,203.771c-0.648,0.305-1.389,0.457-2.221,0.457c-0.594,0-1.133-0.105-1.617-0.314
					s-0.897-0.498-1.239-0.869s-0.605-0.813-0.791-1.324s-0.278-1.07-0.278-1.676c0-0.637,0.099-1.23,0.296-1.779
					s0.479-1.025,0.847-1.43s0.812-0.721,1.333-0.951s1.106-0.346,1.755-0.346c0.715,0,1.354,0.109,1.916,0.328v0.832
					c-0.602-0.301-1.244-0.451-1.928-0.451c-0.543,0-1.025,0.094-1.447,0.281s-0.777,0.447-1.066,0.781s-0.51,0.729-0.662,1.184
					s-0.229,0.953-0.229,1.492c0,0.484,0.068,0.939,0.205,1.367s0.339,0.803,0.606,1.123s0.601,0.574,0.999,0.762
					s0.861,0.281,1.389,0.281c0.809,0,1.52-0.17,2.133-0.51V203.771z"/>
				<path fill="#EBEBEB" d="M59.416,204.082v-1.066h-0.023c-0.195,0.383-0.462,0.68-0.8,0.891s-0.72,0.316-1.146,0.316
					c-0.289,0-0.55-0.041-0.782-0.123s-0.43-0.199-0.592-0.35s-0.287-0.33-0.375-0.541s-0.132-0.443-0.132-0.697
					c0-0.543,0.168-0.977,0.504-1.299s0.844-0.531,1.523-0.629l1.822-0.264c0-1.152-0.447-1.729-1.342-1.729
					c-0.699,0-1.348,0.256-1.945,0.768v-0.82c0.125-0.09,0.267-0.172,0.425-0.244s0.325-0.135,0.501-0.188s0.356-0.094,0.542-0.123
					s0.366-0.043,0.542-0.043c0.668,0,1.173,0.188,1.515,0.563s0.513,0.934,0.513,1.676v3.902H59.416z M57.869,201.17
					c-0.27,0.039-0.5,0.088-0.691,0.146s-0.35,0.137-0.475,0.236s-0.217,0.223-0.275,0.369s-0.088,0.328-0.088,0.543
					c0,0.16,0.028,0.309,0.085,0.445s0.139,0.254,0.246,0.354s0.238,0.178,0.393,0.232s0.329,0.082,0.524,0.082
					c0.266,0,0.51-0.051,0.732-0.152s0.415-0.242,0.577-0.422s0.289-0.395,0.381-0.645s0.138-0.521,0.138-0.814v-0.592
					L57.869,201.17z"/>
				<path fill="#EBEBEB" d="M62.721,203.115v3.727h-0.75v-8.76h0.75v1.148h0.023c0.223-0.418,0.521-0.738,0.894-0.959
					s0.794-0.33,1.263-0.33c0.383,0,0.726,0.068,1.028,0.207s0.559,0.336,0.768,0.59s0.369,0.563,0.48,0.926
					s0.167,0.771,0.167,1.225c0,0.496-0.063,0.947-0.188,1.355s-0.305,0.76-0.539,1.053s-0.519,0.52-0.853,0.682
					s-0.71,0.244-1.128,0.244c-0.844,0-1.475-0.369-1.893-1.107H62.721z M62.721,201.586c0,0.273,0.046,0.529,0.138,0.77
					s0.22,0.451,0.384,0.633s0.362,0.326,0.595,0.432s0.489,0.158,0.771,0.158c0.301,0,0.572-0.064,0.814-0.191
					s0.448-0.307,0.618-0.541s0.301-0.518,0.393-0.85s0.138-0.703,0.138-1.113c0-0.352-0.043-0.67-0.129-0.953
					s-0.208-0.523-0.366-0.723s-0.35-0.352-0.574-0.457s-0.476-0.158-0.753-0.158c-0.313,0-0.594,0.057-0.844,0.172
					s-0.463,0.273-0.639,0.473s-0.311,0.432-0.404,0.699s-0.141,0.553-0.141,0.854V201.586z"/>
				<path fill="#EBEBEB" d="M71.434,204.012c-0.258,0.129-0.539,0.193-0.844,0.193c-0.969,0-1.453-0.559-1.453-1.676v-3.791h-1.055
					v-0.656h1.055v-1.512l0.75-0.246v1.758h1.547v0.656h-1.547v3.674c0,0.406,0.066,0.699,0.199,0.879s0.357,0.27,0.674,0.27
					c0.234,0,0.459-0.07,0.674-0.211V204.012z"/>
				<path fill="#EBEBEB" d="M76.596,204.082v-1.02h-0.023c-0.406,0.773-1.037,1.16-1.893,1.16c-1.426,0-2.139-0.871-2.139-2.613
					v-3.527h0.75v3.387c0,0.719,0.128,1.25,0.384,1.594s0.647,0.516,1.175,0.516c0.258,0,0.493-0.051,0.706-0.15
					s0.396-0.24,0.551-0.422s0.274-0.398,0.36-0.652s0.129-0.535,0.129-0.844v-3.428h0.75v6H76.596z"/>
				<path fill="#EBEBEB" d="M82.256,198.85c-0.176-0.129-0.402-0.193-0.68-0.193c-0.199,0-0.375,0.037-0.527,0.113
					s-0.286,0.18-0.401,0.309s-0.213,0.277-0.293,0.447s-0.145,0.348-0.193,0.531s-0.084,0.369-0.105,0.557
					s-0.032,0.365-0.032,0.533v2.936h-0.744v-6h0.744v1.283h0.023c0.07-0.219,0.159-0.416,0.267-0.59s0.231-0.32,0.372-0.439
					s0.294-0.209,0.46-0.271s0.341-0.094,0.524-0.094c0.121,0,0.229,0.008,0.325,0.023s0.183,0.039,0.261,0.07V198.85z"/>
				<path fill="#EBEBEB" d="M86.803,204.082v-1.066h-0.023c-0.195,0.383-0.462,0.68-0.8,0.891s-0.72,0.316-1.146,0.316
					c-0.289,0-0.55-0.041-0.782-0.123s-0.43-0.199-0.592-0.35s-0.287-0.33-0.375-0.541s-0.132-0.443-0.132-0.697
					c0-0.543,0.168-0.977,0.504-1.299s0.844-0.531,1.523-0.629l1.822-0.264c0-1.152-0.447-1.729-1.342-1.729
					c-0.699,0-1.348,0.256-1.945,0.768v-0.82c0.125-0.09,0.267-0.172,0.425-0.244s0.325-0.135,0.501-0.188s0.356-0.094,0.542-0.123
					s0.366-0.043,0.542-0.043c0.668,0,1.173,0.188,1.515,0.563s0.513,0.934,0.513,1.676v3.902H86.803z M85.256,201.17
					c-0.27,0.039-0.5,0.088-0.691,0.146s-0.35,0.137-0.475,0.236s-0.217,0.223-0.275,0.369s-0.088,0.328-0.088,0.543
					c0,0.16,0.028,0.309,0.085,0.445s0.139,0.254,0.246,0.354s0.238,0.178,0.393,0.232s0.329,0.082,0.524,0.082
					c0.266,0,0.51-0.051,0.732-0.152s0.415-0.242,0.577-0.422s0.289-0.395,0.381-0.645s0.138-0.521,0.138-0.814v-0.592
					L85.256,201.17z"/>
				<path fill="#EBEBEB" d="M92.334,198.85c-0.176-0.129-0.402-0.193-0.68-0.193c-0.199,0-0.375,0.037-0.527,0.113
					s-0.286,0.18-0.401,0.309s-0.213,0.277-0.293,0.447s-0.145,0.348-0.193,0.531s-0.084,0.369-0.105,0.557
					s-0.032,0.365-0.032,0.533v2.936h-0.744v-6h0.744v1.283h0.023c0.07-0.219,0.159-0.416,0.267-0.59s0.231-0.32,0.372-0.439
					s0.294-0.209,0.46-0.271s0.341-0.094,0.524-0.094c0.121,0,0.229,0.008,0.325,0.023s0.183,0.039,0.261,0.07V198.85z"/>
				<path fill="#EBEBEB" d="M100.256,204.223c-0.594,0-1.132-0.104-1.614-0.311s-0.895-0.498-1.236-0.871s-0.605-0.82-0.791-1.342
					s-0.278-1.096-0.278-1.725c0-0.676,0.095-1.287,0.284-1.832s0.46-1.01,0.812-1.396s0.778-0.686,1.28-0.895
					s1.065-0.313,1.69-0.313c0.57,0,1.091,0.102,1.562,0.307s0.875,0.494,1.213,0.867s0.6,0.818,0.785,1.336s0.278,1.09,0.278,1.715
					c0,0.906-0.159,1.688-0.478,2.346s-0.763,1.168-1.333,1.527l2.32,1.576h-1.418l-1.688-1.207c-0.211,0.07-0.432,0.123-0.662,0.16
					S100.51,204.223,100.256,204.223z M100.32,196.248c-0.465,0-0.892,0.088-1.28,0.266s-0.723,0.428-1.002,0.748
					s-0.497,0.703-0.653,1.15s-0.234,0.943-0.234,1.486c0,0.547,0.074,1.043,0.223,1.488s0.357,0.826,0.627,1.143
					s0.595,0.561,0.976,0.732s0.806,0.258,1.274,0.258c0.488,0,0.928-0.082,1.318-0.246s0.724-0.402,0.999-0.715
					s0.487-0.695,0.636-1.146s0.223-0.961,0.223-1.531c0-0.574-0.072-1.086-0.217-1.535s-0.352-0.83-0.621-1.141
					s-0.596-0.547-0.979-0.711S100.797,196.248,100.32,196.248z"/>
				<path fill="#EBEBEB" d="M110.498,204.082l-1.266-2.408c-0.125-0.238-0.246-0.438-0.363-0.598s-0.238-0.289-0.363-0.385
					s-0.259-0.164-0.401-0.205s-0.302-0.061-0.478-0.061h-0.926v3.656h-0.779v-8.402h2.42c0.316,0,0.622,0.047,0.917,0.141
					s0.558,0.232,0.788,0.416s0.415,0.414,0.554,0.691s0.208,0.6,0.208,0.967c0,0.297-0.045,0.57-0.135,0.82
					s-0.218,0.471-0.384,0.664s-0.367,0.357-0.604,0.492s-0.503,0.236-0.8,0.303v0.023c0.113,0.047,0.217,0.107,0.311,0.182
					s0.185,0.164,0.272,0.27s0.175,0.227,0.261,0.363s0.176,0.293,0.27,0.469l1.412,2.602H110.498z M106.701,196.395v3.322h1.395
					c0.281,0,0.539-0.041,0.773-0.123s0.435-0.199,0.601-0.352s0.295-0.336,0.387-0.551s0.138-0.457,0.138-0.727
					c0-0.488-0.157-0.873-0.472-1.152s-0.769-0.418-1.362-0.418H106.701z"/>
				<path fill="#EBEBEB" d="M121.777,203.771c-0.648,0.305-1.389,0.457-2.221,0.457c-0.594,0-1.133-0.105-1.617-0.314
					s-0.897-0.498-1.239-0.869s-0.605-0.813-0.791-1.324s-0.278-1.07-0.278-1.676c0-0.637,0.099-1.23,0.296-1.779
					s0.479-1.025,0.847-1.43s0.812-0.721,1.333-0.951s1.106-0.346,1.755-0.346c0.715,0,1.354,0.109,1.916,0.328v0.832
					c-0.602-0.301-1.244-0.451-1.928-0.451c-0.543,0-1.025,0.094-1.447,0.281s-0.777,0.447-1.066,0.781s-0.51,0.729-0.662,1.184
					s-0.229,0.953-0.229,1.492c0,0.484,0.068,0.939,0.205,1.367s0.339,0.803,0.606,1.123s0.601,0.574,0.999,0.762
					s0.861,0.281,1.389,0.281c0.809,0,1.52-0.17,2.133-0.51V203.771z"/>
				<path fill="#EBEBEB" d="M125.902,204.223c-0.445,0-0.845-0.074-1.198-0.223s-0.655-0.359-0.905-0.631s-0.441-0.596-0.574-0.975
					s-0.199-0.799-0.199-1.26c0-0.5,0.07-0.947,0.211-1.342s0.341-0.73,0.601-1.006s0.573-0.484,0.94-0.629s0.777-0.217,1.23-0.217
					c0.434,0,0.824,0.07,1.172,0.213s0.643,0.35,0.885,0.619s0.428,0.598,0.557,0.984s0.193,0.826,0.193,1.318
					c0,0.469-0.067,0.895-0.202,1.279s-0.327,0.717-0.577,0.994s-0.555,0.492-0.914,0.645S126.355,204.223,125.902,204.223z
					 M125.961,198.592c-0.328,0-0.625,0.057-0.891,0.17s-0.493,0.277-0.683,0.494s-0.335,0.482-0.437,0.797s-0.152,0.672-0.152,1.07
					c0,0.375,0.051,0.713,0.152,1.014s0.245,0.559,0.431,0.773s0.411,0.379,0.677,0.494s0.563,0.174,0.891,0.174
					c0.336,0,0.633-0.057,0.891-0.168s0.477-0.273,0.656-0.486s0.315-0.473,0.407-0.781s0.138-0.66,0.138-1.055
					c0-0.809-0.18-1.428-0.539-1.855S126.629,198.592,125.961,198.592z"/>
				<path fill="#EBEBEB" d="M134.533,204.082v-1.055h-0.023c-0.199,0.379-0.483,0.672-0.853,0.881s-0.788,0.314-1.257,0.314
					c-0.375,0-0.716-0.07-1.022-0.209s-0.569-0.338-0.788-0.6s-0.388-0.578-0.507-0.949s-0.179-0.791-0.179-1.26
					c0-0.484,0.065-0.928,0.196-1.328s0.316-0.744,0.557-1.031s0.529-0.51,0.867-0.668s0.714-0.236,1.128-0.236
					c0.863,0,1.482,0.346,1.857,1.037h0.023v-3.779h0.75v8.883H134.533z M134.533,200.461c0-0.262-0.045-0.506-0.135-0.732
					s-0.215-0.424-0.375-0.592s-0.353-0.301-0.577-0.398s-0.472-0.146-0.741-0.146c-0.297,0-0.57,0.059-0.82,0.176
					s-0.464,0.285-0.642,0.506s-0.316,0.49-0.416,0.807s-0.149,0.676-0.149,1.078c0,0.379,0.045,0.719,0.135,1.02
					s0.218,0.555,0.384,0.762s0.364,0.365,0.595,0.475s0.486,0.164,0.768,0.164c0.305,0,0.579-0.055,0.823-0.164
					s0.451-0.26,0.621-0.451s0.301-0.416,0.393-0.674s0.138-0.533,0.138-0.826V200.461z"/>
				<path fill="#EBEBEB" d="M137.574,201.217c0.004,0.367,0.053,0.697,0.146,0.99s0.229,0.541,0.404,0.744s0.39,0.357,0.642,0.465
					s0.536,0.162,0.853,0.162c0.676,0,1.314-0.236,1.916-0.709v0.738c-0.574,0.41-1.27,0.615-2.086,0.615
					c-0.402,0-0.768-0.07-1.096-0.211s-0.607-0.346-0.838-0.613s-0.408-0.596-0.533-0.986s-0.188-0.836-0.188-1.336
					c0-0.449,0.068-0.865,0.205-1.248s0.326-0.715,0.568-0.994s0.529-0.498,0.861-0.656s0.695-0.236,1.09-0.236
					c0.387,0,0.729,0.066,1.025,0.201s0.546,0.328,0.747,0.578s0.354,0.555,0.46,0.914s0.158,0.762,0.158,1.207v0.375H137.574z
					 M141.137,200.561c-0.012-0.625-0.16-1.109-0.445-1.453s-0.682-0.516-1.189-0.516c-0.254,0-0.489,0.045-0.706,0.135
					s-0.407,0.219-0.571,0.389s-0.3,0.377-0.407,0.621s-0.183,0.52-0.226,0.824H141.137z"/>
			</g>
			<g>
				<g>
					<g>
						<path fill="#EBEBEB" d="M37.444,201.951c0,0.336-0.274,0.611-0.611,0.611h-7.645c-0.335,0-0.61-0.275-0.61-0.611v-4.74
							c0-0.336,0.275-0.611,0.61-0.611h7.645c0.337,0,0.611,0.275,0.611,0.611V201.951z"/>
					</g>
				</g>
				<g>
					<g>
						<g>
							<g>
								<g>
									<path fill="#EBEBEB" d="M29.304,195.875c0.336,0,0.612-0.129,0.612-0.287s-0.276-0.287-0.612-0.287h-1.682
										c-0.335,0-0.61,0.275-0.61,0.611v1.682c0,0.336,0.128,0.611,0.286,0.611s0.286-0.275,0.286-0.611v-1.107
										c0-0.336,0.276-0.611,0.612-0.611H29.304z"/>
								</g>
							</g>
						</g>
						<g>
							<g>
								<g>
									<path fill="#EBEBEB" d="M38.438,197.594c0,0.336,0.129,0.611,0.287,0.611c0.157,0,0.287-0.275,0.287-0.611v-1.682
										c0-0.336-0.275-0.611-0.612-0.611h-1.682c-0.335,0-0.611,0.129-0.611,0.287s0.276,0.287,0.611,0.287h1.108
										c0.336,0,0.611,0.275,0.611,0.611V197.594z"/>
								</g>
							</g>
						</g>
					</g>
					<g>
						<g>
							<g>
								<g>
									<path fill="#EBEBEB" d="M36.718,203.287c-0.335,0-0.611,0.131-0.611,0.287c0,0.158,0.276,0.287,0.611,0.287h1.682
										c0.337,0,0.612-0.275,0.612-0.611v-1.682c0-0.336-0.13-0.611-0.287-0.611c-0.158,0-0.286,0.275-0.286,0.611v1.107
										c0,0.338-0.276,0.611-0.612,0.611H36.718z"/>
								</g>
							</g>
						</g>
						<g>
							<g>
								<g>
									<path fill="#EBEBEB" d="M27.586,201.568c0-0.336-0.13-0.611-0.288-0.611s-0.286,0.275-0.286,0.611v1.682
										c0,0.336,0.275,0.611,0.61,0.611h1.682c0.336,0,0.612-0.129,0.612-0.287c0-0.156-0.276-0.287-0.612-0.287h-1.107
										c-0.336,0-0.61-0.273-0.61-0.611V201.568z"/>
								</g>
							</g>
						</g>
					</g>
				</g>
			</g>
		</g>
	</g>
</g>
<g>
	<rect y="315.5" fill="#EBEBEB" width="210" height="50"/>
	<rect y="314.5" fill="#DBDADA" width="210" height="1"/>
</g>
<g>
	<g>
		<path fill="#5E5E5E" d="M33.027,331.139v-6.302h1.657c1.077,0,1.892,0.259,2.443,0.775c0.55,0.518,0.826,1.281,0.826,2.292
			c0,0.486-0.077,0.929-0.231,1.327c-0.153,0.398-0.376,0.739-0.665,1.021c-0.291,0.283-0.643,0.501-1.055,0.655
			c-0.414,0.153-0.879,0.23-1.398,0.23H33.027z M33.612,325.373v5.234h0.967c0.433,0,0.82-0.059,1.162-0.176
			c0.341-0.117,0.631-0.29,0.867-0.517c0.238-0.228,0.419-0.508,0.543-0.842c0.125-0.334,0.188-0.718,0.188-1.151
			c0-1.699-0.898-2.549-2.694-2.549H33.612z"/>
		<path fill="#5E5E5E" d="M39.39,328.99c0.003,0.275,0.04,0.522,0.11,0.742s0.171,0.406,0.303,0.559s0.292,0.269,0.481,0.349
			c0.188,0.081,0.401,0.121,0.64,0.121c0.506,0,0.985-0.177,1.437-0.532v0.555c-0.431,0.307-0.952,0.461-1.564,0.461
			c-0.302,0-0.575-0.053-0.821-0.158s-0.456-0.259-0.629-0.459c-0.173-0.201-0.307-0.447-0.4-0.74s-0.141-0.627-0.141-1.002
			c0-0.337,0.052-0.649,0.154-0.937s0.244-0.535,0.426-0.745c0.182-0.209,0.397-0.373,0.646-0.492
			c0.249-0.118,0.521-0.178,0.817-0.178c0.29,0,0.546,0.051,0.769,0.151c0.223,0.102,0.41,0.246,0.561,0.433
			c0.151,0.188,0.266,0.417,0.346,0.686c0.078,0.271,0.118,0.572,0.118,0.906v0.281H39.39z M42.062,328.498
			c-0.009-0.469-0.12-0.832-0.334-1.09s-0.512-0.387-0.892-0.387c-0.191,0-0.367,0.033-0.53,0.101
			c-0.162,0.067-0.306,0.165-0.429,0.292c-0.123,0.128-0.225,0.283-0.305,0.466c-0.081,0.184-0.138,0.39-0.17,0.618H42.062z"/>
		<path fill="#5E5E5E" d="M43.491,330.33c0.084,0.067,0.177,0.127,0.276,0.18s0.202,0.099,0.308,0.137s0.212,0.066,0.318,0.086
			c0.107,0.019,0.209,0.028,0.306,0.028c0.668,0,1.002-0.251,1.002-0.751c0-0.115-0.023-0.214-0.07-0.297
			c-0.047-0.084-0.114-0.16-0.202-0.229c-0.088-0.069-0.193-0.133-0.316-0.191s-0.263-0.12-0.418-0.185
			c-0.208-0.085-0.387-0.171-0.535-0.259c-0.15-0.088-0.273-0.185-0.369-0.288c-0.098-0.104-0.169-0.219-0.216-0.343
			c-0.047-0.125-0.07-0.266-0.07-0.424c0-0.199,0.043-0.377,0.13-0.532c0.086-0.155,0.202-0.287,0.35-0.396
			c0.146-0.108,0.315-0.191,0.507-0.248c0.192-0.058,0.394-0.086,0.604-0.086c0.39,0,0.729,0.073,1.02,0.22v0.593
			c-0.337-0.216-0.7-0.324-1.09-0.324c-0.141,0-0.269,0.018-0.385,0.053c-0.115,0.035-0.215,0.085-0.297,0.148
			c-0.082,0.065-0.146,0.142-0.19,0.231c-0.046,0.089-0.068,0.188-0.068,0.296c0,0.112,0.018,0.209,0.053,0.293
			c0.035,0.083,0.09,0.159,0.165,0.227c0.074,0.067,0.171,0.131,0.29,0.193c0.118,0.061,0.263,0.127,0.433,0.197
			c0.217,0.088,0.404,0.175,0.563,0.262c0.158,0.086,0.288,0.18,0.391,0.281c0.103,0.101,0.179,0.214,0.229,0.338
			c0.05,0.125,0.075,0.27,0.075,0.434c0,0.201-0.042,0.382-0.125,0.54c-0.084,0.158-0.199,0.292-0.348,0.399
			c-0.147,0.109-0.321,0.191-0.521,0.246c-0.199,0.056-0.416,0.084-0.65,0.084c-0.454,0-0.837-0.096-1.146-0.285V330.33z"/>
		<path fill="#5E5E5E" d="M50.394,330.937c-0.334,0.202-0.738,0.306-1.213,0.312c-0.322,0.003-0.612-0.053-0.87-0.166
			c-0.258-0.115-0.478-0.273-0.659-0.478c-0.182-0.203-0.321-0.443-0.417-0.721c-0.098-0.276-0.146-0.577-0.146-0.903
			c0-0.336,0.051-0.653,0.153-0.951c0.103-0.297,0.252-0.557,0.449-0.777c0.195-0.222,0.436-0.396,0.721-0.525
			c0.283-0.129,0.608-0.193,0.975-0.193c0.372,0,0.713,0.072,1.02,0.215v0.598c-0.328-0.216-0.683-0.324-1.063-0.324
			c-0.268,0-0.505,0.05-0.713,0.151c-0.208,0.101-0.383,0.238-0.524,0.413c-0.143,0.174-0.251,0.378-0.325,0.61
			c-0.075,0.233-0.112,0.48-0.112,0.741c0,0.24,0.031,0.47,0.095,0.689c0.063,0.22,0.159,0.414,0.29,0.582
			c0.13,0.169,0.295,0.303,0.494,0.402s0.434,0.149,0.703,0.149c0.422,0,0.803-0.126,1.143-0.378V330.937z"/>
		<path fill="#5E5E5E" d="M53.317,331.244c-0.334,0-0.634-0.056-0.898-0.167c-0.266-0.111-0.492-0.269-0.68-0.473
			c-0.188-0.203-0.331-0.447-0.43-0.731c-0.101-0.284-0.15-0.599-0.15-0.945c0-0.374,0.053-0.71,0.158-1.006
			s0.256-0.547,0.451-0.754c0.194-0.206,0.43-0.363,0.705-0.473c0.275-0.107,0.583-0.162,0.923-0.162
			c0.325,0,0.618,0.054,0.879,0.16c0.261,0.107,0.481,0.262,0.663,0.464s0.321,0.448,0.418,0.738s0.145,0.62,0.145,0.989
			c0,0.352-0.05,0.671-0.151,0.96c-0.101,0.288-0.245,0.537-0.433,0.745s-0.416,0.369-0.686,0.482
			C53.961,331.188,53.657,331.244,53.317,331.244z M53.361,327.021c-0.246,0-0.469,0.042-0.668,0.127s-0.37,0.209-0.512,0.371
			c-0.143,0.163-0.252,0.362-0.327,0.598c-0.077,0.236-0.115,0.504-0.115,0.803c0,0.281,0.038,0.534,0.115,0.76
			c0.075,0.226,0.184,0.419,0.322,0.58c0.14,0.161,0.309,0.285,0.508,0.371c0.199,0.087,0.422,0.13,0.668,0.13
			c0.252,0,0.475-0.042,0.668-0.125c0.193-0.084,0.357-0.205,0.492-0.365c0.135-0.159,0.236-0.354,0.306-0.587
			c0.068-0.23,0.103-0.494,0.103-0.791c0-0.605-0.135-1.069-0.404-1.391C54.247,327.182,53.862,327.021,53.361,327.021z"/>
		<path fill="#5E5E5E" d="M57.196,330.414v0.725h-0.563v-6.662h0.563v3.023h0.018c0.168-0.313,0.391-0.553,0.671-0.719
			c0.279-0.165,0.595-0.248,0.946-0.248c0.287,0,0.545,0.052,0.771,0.156c0.228,0.104,0.419,0.252,0.576,0.445
			c0.156,0.193,0.276,0.427,0.36,0.699c0.083,0.272,0.125,0.576,0.125,0.91c0,0.372-0.048,0.711-0.143,1.017
			c-0.096,0.307-0.231,0.569-0.407,0.789s-0.389,0.391-0.639,0.512c-0.251,0.122-0.531,0.183-0.842,0.183
			c-0.636,0-1.109-0.277-1.42-0.83H57.196z M57.196,329.267c0,0.205,0.035,0.397,0.104,0.578c0.069,0.18,0.165,0.338,0.288,0.475
			c0.123,0.136,0.271,0.243,0.446,0.323c0.174,0.078,0.367,0.118,0.578,0.118c0.225,0,0.429-0.048,0.61-0.143
			c0.182-0.096,0.336-0.231,0.464-0.407c0.127-0.176,0.226-0.388,0.294-0.637c0.069-0.249,0.104-0.527,0.104-0.835
			c0-0.264-0.032-0.502-0.097-0.714c-0.064-0.213-0.156-0.394-0.274-0.543c-0.119-0.149-0.263-0.264-0.431-0.343
			c-0.169-0.079-0.357-0.118-0.564-0.118c-0.235,0-0.446,0.043-0.633,0.129c-0.188,0.087-0.348,0.205-0.479,0.354
			c-0.132,0.15-0.233,0.325-0.304,0.525c-0.07,0.201-0.105,0.414-0.105,0.64V329.267z"/>
		<path fill="#5E5E5E" d="M64.03,327.215c-0.131-0.098-0.302-0.146-0.51-0.146c-0.148,0-0.281,0.028-0.395,0.086
			c-0.115,0.057-0.215,0.134-0.302,0.23c-0.086,0.097-0.159,0.209-0.22,0.336c-0.06,0.128-0.108,0.261-0.145,0.397
			c-0.037,0.139-0.063,0.277-0.079,0.418c-0.017,0.141-0.024,0.274-0.024,0.4v2.201h-0.559v-4.5h0.559v0.963h0.018
			c0.053-0.164,0.119-0.312,0.2-0.442c0.08-0.13,0.173-0.24,0.278-0.329c0.105-0.09,0.221-0.157,0.346-0.205
			c0.124-0.046,0.255-0.07,0.393-0.07c0.091,0,0.173,0.007,0.244,0.018c0.072,0.013,0.137,0.03,0.195,0.053V327.215z"/>
		<path fill="#5E5E5E" d="M65.125,325.5c-0.108,0-0.202-0.037-0.281-0.113s-0.118-0.173-0.118-0.291
			c0-0.113,0.039-0.208,0.118-0.283c0.079-0.074,0.173-0.111,0.281-0.111c0.056,0,0.108,0.009,0.158,0.028
			c0.05,0.019,0.093,0.046,0.13,0.081c0.036,0.035,0.065,0.077,0.088,0.125c0.021,0.049,0.033,0.103,0.033,0.16
			c0,0.057-0.011,0.109-0.031,0.158c-0.021,0.051-0.05,0.094-0.088,0.13c-0.038,0.037-0.081,0.065-0.13,0.086
			C65.237,325.49,65.183,325.5,65.125,325.5z M64.848,331.139v-4.5h0.563v4.5H64.848z"/>
		<path fill="#5E5E5E" d="M69.092,327.215c-0.131-0.098-0.302-0.146-0.51-0.146c-0.148,0-0.281,0.028-0.395,0.086
			c-0.115,0.057-0.215,0.134-0.302,0.23c-0.086,0.097-0.159,0.209-0.22,0.336c-0.06,0.128-0.108,0.261-0.145,0.397
			c-0.037,0.139-0.063,0.277-0.079,0.418c-0.017,0.141-0.024,0.274-0.024,0.4v2.201H66.86v-4.5h0.559v0.963h0.018
			c0.053-0.164,0.119-0.312,0.2-0.442c0.08-0.13,0.173-0.24,0.278-0.329c0.105-0.09,0.221-0.157,0.346-0.205
			c0.124-0.046,0.255-0.07,0.393-0.07c0.091,0,0.173,0.007,0.244,0.018c0.072,0.013,0.137,0.03,0.195,0.053V327.215z"/>
		<path fill="#5E5E5E" d="M72.122,330.33c0.084,0.067,0.177,0.127,0.276,0.18s0.202,0.099,0.308,0.137s0.212,0.066,0.318,0.086
			c0.107,0.019,0.209,0.028,0.306,0.028c0.668,0,1.002-0.251,1.002-0.751c0-0.115-0.023-0.214-0.07-0.297
			c-0.047-0.084-0.114-0.16-0.202-0.229c-0.088-0.069-0.193-0.133-0.316-0.191s-0.263-0.12-0.418-0.185
			c-0.208-0.085-0.387-0.171-0.535-0.259c-0.15-0.088-0.273-0.185-0.369-0.288c-0.098-0.104-0.169-0.219-0.216-0.343
			c-0.047-0.125-0.07-0.266-0.07-0.424c0-0.199,0.043-0.377,0.13-0.532c0.086-0.155,0.202-0.287,0.35-0.396
			c0.146-0.108,0.315-0.191,0.507-0.248c0.192-0.058,0.394-0.086,0.604-0.086c0.39,0,0.729,0.073,1.02,0.22v0.593
			c-0.337-0.216-0.7-0.324-1.09-0.324c-0.141,0-0.269,0.018-0.385,0.053c-0.115,0.035-0.215,0.085-0.297,0.148
			c-0.082,0.065-0.146,0.142-0.19,0.231c-0.046,0.089-0.068,0.188-0.068,0.296c0,0.112,0.018,0.209,0.053,0.293
			c0.035,0.083,0.09,0.159,0.165,0.227c0.074,0.067,0.171,0.131,0.29,0.193c0.118,0.061,0.263,0.127,0.433,0.197
			c0.217,0.088,0.404,0.175,0.563,0.262c0.158,0.086,0.288,0.18,0.391,0.281c0.103,0.101,0.179,0.214,0.229,0.338
			c0.05,0.125,0.075,0.27,0.075,0.434c0,0.201-0.042,0.382-0.125,0.54c-0.084,0.158-0.199,0.292-0.348,0.399
			c-0.147,0.109-0.321,0.191-0.521,0.246c-0.199,0.056-0.416,0.084-0.65,0.084c-0.454,0-0.837-0.096-1.146-0.285V330.33z"/>
		<path fill="#5E5E5E" d="M76.3,328.99c0.003,0.275,0.04,0.522,0.11,0.742s0.171,0.406,0.303,0.559s0.292,0.269,0.481,0.349
			c0.188,0.081,0.401,0.121,0.64,0.121c0.506,0,0.985-0.177,1.437-0.532v0.555c-0.431,0.307-0.952,0.461-1.564,0.461
			c-0.302,0-0.575-0.053-0.821-0.158s-0.456-0.259-0.629-0.459c-0.173-0.201-0.307-0.447-0.4-0.74s-0.141-0.627-0.141-1.002
			c0-0.337,0.052-0.649,0.154-0.937s0.244-0.535,0.426-0.745c0.182-0.209,0.397-0.373,0.646-0.492
			c0.249-0.118,0.521-0.178,0.817-0.178c0.29,0,0.546,0.051,0.769,0.151c0.223,0.102,0.41,0.246,0.561,0.433
			c0.151,0.188,0.266,0.417,0.346,0.686c0.078,0.271,0.118,0.572,0.118,0.906v0.281H76.3z M78.972,328.498
			c-0.009-0.469-0.12-0.832-0.334-1.09s-0.512-0.387-0.892-0.387c-0.191,0-0.367,0.033-0.53,0.101
			c-0.162,0.067-0.306,0.165-0.429,0.292c-0.123,0.128-0.225,0.283-0.305,0.466c-0.081,0.184-0.138,0.39-0.17,0.618H78.972z"/>
		<path fill="#5E5E5E" d="M84.724,331.139h-0.536l-1.723-4.5h0.619l1.244,3.428c0.076,0.208,0.124,0.391,0.145,0.549h0.018
			c0.035-0.211,0.081-0.388,0.137-0.531l1.287-3.445h0.603L84.724,331.139z"/>
		<path fill="#5E5E5E" d="M89.101,331.244c-0.334,0-0.634-0.056-0.898-0.167c-0.266-0.111-0.492-0.269-0.679-0.473
			c-0.188-0.203-0.332-0.447-0.432-0.731s-0.148-0.599-0.148-0.945c0-0.374,0.053-0.71,0.158-1.006s0.255-0.547,0.45-0.754
			c0.194-0.206,0.43-0.363,0.705-0.473c0.275-0.107,0.583-0.162,0.923-0.162c0.325,0,0.618,0.054,0.879,0.16
			c0.261,0.107,0.481,0.262,0.664,0.464c0.181,0.202,0.32,0.448,0.417,0.738s0.146,0.62,0.146,0.989c0,0.352-0.051,0.671-0.152,0.96
			c-0.101,0.288-0.245,0.537-0.433,0.745s-0.416,0.369-0.686,0.482C89.746,331.188,89.441,331.244,89.101,331.244z M89.145,327.021
			c-0.246,0-0.469,0.042-0.668,0.127s-0.37,0.209-0.512,0.371c-0.143,0.163-0.252,0.362-0.328,0.598
			c-0.076,0.236-0.113,0.504-0.113,0.803c0,0.281,0.037,0.534,0.113,0.76s0.185,0.419,0.323,0.58
			c0.14,0.161,0.309,0.285,0.508,0.371c0.199,0.087,0.422,0.13,0.668,0.13c0.252,0,0.475-0.042,0.668-0.125
			c0.193-0.084,0.357-0.205,0.492-0.365c0.135-0.159,0.236-0.354,0.306-0.587c0.068-0.23,0.104-0.494,0.104-0.791
			c0-0.605-0.136-1.069-0.404-1.391C90.031,327.182,89.646,327.021,89.145,327.021z"/>
		<path fill="#5E5E5E" d="M95.412,330.937c-0.334,0.202-0.738,0.306-1.213,0.312c-0.322,0.003-0.612-0.053-0.87-0.166
			c-0.258-0.115-0.478-0.273-0.659-0.478c-0.182-0.203-0.321-0.443-0.417-0.721c-0.098-0.276-0.146-0.577-0.146-0.903
			c0-0.336,0.051-0.653,0.153-0.951c0.103-0.297,0.252-0.557,0.449-0.777c0.195-0.222,0.436-0.396,0.721-0.525
			c0.283-0.129,0.608-0.193,0.975-0.193c0.372,0,0.713,0.072,1.02,0.215v0.598c-0.328-0.216-0.683-0.324-1.063-0.324
			c-0.268,0-0.505,0.05-0.713,0.151c-0.208,0.101-0.383,0.238-0.524,0.413c-0.143,0.174-0.251,0.378-0.325,0.61
			c-0.075,0.233-0.112,0.48-0.112,0.741c0,0.24,0.031,0.47,0.095,0.689c0.063,0.22,0.159,0.414,0.29,0.582
			c0.13,0.169,0.295,0.303,0.494,0.402s0.434,0.149,0.703,0.149c0.422,0,0.803-0.126,1.143-0.378V330.937z"/>
		<path fill="#5E5E5E" d="M96.761,328.99c0.003,0.275,0.04,0.522,0.11,0.742s0.171,0.406,0.303,0.559s0.292,0.269,0.481,0.349
			c0.188,0.081,0.401,0.121,0.64,0.121c0.506,0,0.985-0.177,1.437-0.532v0.555c-0.431,0.307-0.952,0.461-1.564,0.461
			c-0.302,0-0.575-0.053-0.821-0.158s-0.456-0.259-0.629-0.459c-0.173-0.201-0.307-0.447-0.4-0.74s-0.141-0.627-0.141-1.002
			c0-0.337,0.052-0.649,0.154-0.937s0.244-0.535,0.426-0.745c0.182-0.209,0.397-0.373,0.646-0.492
			c0.249-0.118,0.521-0.178,0.817-0.178c0.29,0,0.546,0.051,0.769,0.151c0.223,0.102,0.41,0.246,0.561,0.433
			c0.151,0.188,0.266,0.417,0.346,0.686c0.078,0.271,0.118,0.572,0.118,0.906v0.281H96.761z M99.433,328.498
			c-0.009-0.469-0.12-0.832-0.334-1.09s-0.512-0.387-0.892-0.387c-0.191,0-0.367,0.033-0.53,0.101
			c-0.162,0.067-0.306,0.165-0.429,0.292c-0.123,0.128-0.225,0.283-0.305,0.466c-0.081,0.184-0.138,0.39-0.17,0.618H99.433z
			 M98.893,325.852l-0.708-1.027l-0.712,1.027h-0.431L98,324.385h0.391l0.959,1.467H98.893z"/>
		<path fill="#5E5E5E" d="M103.849,328.99c0.003,0.275,0.04,0.522,0.11,0.742s0.171,0.406,0.303,0.559s0.292,0.269,0.481,0.349
			c0.188,0.081,0.401,0.121,0.64,0.121c0.506,0,0.986-0.177,1.437-0.532v0.555c-0.432,0.307-0.953,0.461-1.565,0.461
			c-0.302,0-0.575-0.053-0.821-0.158s-0.456-0.259-0.629-0.459c-0.173-0.201-0.307-0.447-0.4-0.74s-0.141-0.627-0.141-1.002
			c0-0.337,0.052-0.649,0.154-0.937s0.244-0.535,0.426-0.745c0.182-0.209,0.397-0.373,0.646-0.492
			c0.249-0.118,0.521-0.178,0.817-0.178c0.29,0,0.546,0.051,0.768,0.151c0.223,0.102,0.41,0.246,0.561,0.433
			c0.152,0.188,0.266,0.417,0.346,0.686c0.078,0.271,0.119,0.572,0.119,0.906v0.281H103.849z M106.521,328.498
			c-0.01-0.469-0.121-0.832-0.334-1.09c-0.214-0.258-0.512-0.387-0.892-0.387c-0.191,0-0.367,0.033-0.53,0.101
			c-0.162,0.067-0.306,0.165-0.429,0.292c-0.123,0.128-0.225,0.283-0.305,0.466c-0.081,0.184-0.138,0.39-0.17,0.618H106.521z"/>
		<path fill="#5E5E5E" d="M107.949,330.33c0.084,0.067,0.178,0.127,0.277,0.18s0.201,0.099,0.307,0.137s0.213,0.066,0.318,0.086
			c0.107,0.019,0.209,0.028,0.307,0.028c0.668,0,1.002-0.251,1.002-0.751c0-0.115-0.023-0.214-0.07-0.297
			c-0.047-0.084-0.115-0.16-0.203-0.229c-0.088-0.069-0.193-0.133-0.316-0.191s-0.262-0.12-0.418-0.185
			c-0.207-0.085-0.387-0.171-0.535-0.259c-0.15-0.088-0.273-0.185-0.369-0.288c-0.098-0.104-0.168-0.219-0.215-0.343
			c-0.047-0.125-0.07-0.266-0.07-0.424c0-0.199,0.043-0.377,0.129-0.532s0.203-0.287,0.35-0.396s0.316-0.191,0.508-0.248
			c0.191-0.058,0.393-0.086,0.604-0.086c0.391,0,0.73,0.073,1.02,0.22v0.593c-0.336-0.216-0.699-0.324-1.09-0.324
			c-0.141,0-0.268,0.018-0.385,0.053c-0.115,0.035-0.215,0.085-0.297,0.148c-0.082,0.065-0.145,0.142-0.189,0.231
			c-0.047,0.089-0.068,0.188-0.068,0.296c0,0.112,0.018,0.209,0.053,0.293c0.035,0.083,0.09,0.159,0.164,0.227
			s0.172,0.131,0.291,0.193c0.117,0.061,0.262,0.127,0.432,0.197c0.217,0.088,0.404,0.175,0.563,0.262
			c0.158,0.086,0.289,0.18,0.391,0.281c0.104,0.101,0.18,0.214,0.229,0.338c0.051,0.125,0.076,0.27,0.076,0.434
			c0,0.201-0.043,0.382-0.125,0.54c-0.084,0.158-0.199,0.292-0.348,0.399c-0.148,0.109-0.322,0.191-0.521,0.246
			c-0.199,0.056-0.416,0.084-0.65,0.084c-0.453,0-0.836-0.096-1.146-0.285V330.33z"/>
		<path fill="#5E5E5E" d="M113.793,331.086c-0.193,0.097-0.404,0.145-0.633,0.145c-0.727,0-1.09-0.418-1.09-1.256v-2.844h-0.791
			v-0.492h0.791v-1.134l0.563-0.185v1.318h1.16v0.492h-1.16v2.756c0,0.305,0.051,0.524,0.15,0.658
			c0.1,0.136,0.268,0.203,0.506,0.203c0.176,0,0.344-0.053,0.504-0.158V331.086z"/>
		<path fill="#5E5E5E" d="M117.314,331.139v-0.8h-0.018c-0.146,0.287-0.346,0.51-0.6,0.668s-0.541,0.237-0.859,0.237
			c-0.217,0-0.412-0.031-0.586-0.092c-0.176-0.063-0.322-0.149-0.445-0.262c-0.121-0.113-0.215-0.248-0.281-0.406
			c-0.064-0.158-0.098-0.333-0.098-0.523c0-0.407,0.125-0.731,0.377-0.974c0.252-0.241,0.633-0.398,1.143-0.472l1.367-0.198
			c0-0.864-0.336-1.296-1.006-1.296c-0.525,0-1.012,0.191-1.459,0.575v-0.615c0.094-0.067,0.199-0.128,0.318-0.183
			c0.119-0.054,0.244-0.101,0.375-0.141c0.133-0.039,0.268-0.07,0.406-0.092c0.141-0.022,0.275-0.033,0.406-0.033
			c0.502,0,0.881,0.141,1.137,0.422s0.385,0.7,0.385,1.257v2.927H117.314z M116.154,328.955c-0.203,0.029-0.375,0.065-0.52,0.109
			c-0.143,0.044-0.262,0.104-0.355,0.178c-0.094,0.075-0.162,0.167-0.207,0.277c-0.043,0.109-0.064,0.245-0.064,0.406
			c0,0.12,0.021,0.231,0.063,0.334c0.043,0.103,0.105,0.191,0.186,0.266c0.08,0.075,0.178,0.133,0.295,0.174
			c0.115,0.041,0.246,0.062,0.393,0.062c0.199,0,0.383-0.038,0.549-0.114c0.168-0.076,0.313-0.182,0.434-0.316
			s0.217-0.296,0.285-0.483s0.104-0.392,0.104-0.61v-0.444L116.154,328.955z M116.074,325.852H115.6l1.002-1.441h0.594
			L116.074,325.852z"/>
		<path fill="#5E5E5E" d="M124.732,331.139v-2.593c0-1.017-0.369-1.524-1.107-1.524c-0.197,0-0.379,0.038-0.545,0.116
			c-0.168,0.077-0.313,0.186-0.434,0.323s-0.217,0.301-0.285,0.489c-0.068,0.189-0.104,0.394-0.104,0.613v2.575h-0.563v-4.5h0.563
			v0.782h0.018c0.334-0.592,0.836-0.888,1.508-0.888c0.492,0,0.867,0.16,1.125,0.479c0.258,0.32,0.387,0.781,0.387,1.385v2.742
			H124.732z"/>
		<path fill="#5E5E5E" d="M129.24,331.139v-0.8h-0.018c-0.146,0.287-0.346,0.51-0.6,0.668s-0.541,0.237-0.859,0.237
			c-0.217,0-0.412-0.031-0.586-0.092c-0.176-0.063-0.322-0.149-0.445-0.262c-0.121-0.113-0.215-0.248-0.281-0.406
			c-0.064-0.158-0.098-0.333-0.098-0.523c0-0.407,0.125-0.731,0.377-0.974c0.252-0.241,0.633-0.398,1.143-0.472l1.367-0.198
			c0-0.864-0.336-1.296-1.006-1.296c-0.525,0-1.012,0.191-1.459,0.575v-0.615c0.094-0.067,0.199-0.128,0.318-0.183
			c0.119-0.054,0.244-0.101,0.375-0.141c0.133-0.039,0.268-0.07,0.406-0.092c0.141-0.022,0.275-0.033,0.406-0.033
			c0.502,0,0.881,0.141,1.137,0.422s0.385,0.7,0.385,1.257v2.927H129.24z M128.08,328.955c-0.203,0.029-0.375,0.065-0.52,0.109
			c-0.143,0.044-0.262,0.104-0.355,0.178c-0.094,0.075-0.162,0.167-0.207,0.277c-0.043,0.109-0.064,0.245-0.064,0.406
			c0,0.12,0.021,0.231,0.063,0.334c0.043,0.103,0.105,0.191,0.186,0.266c0.08,0.075,0.178,0.133,0.295,0.174
			c0.115,0.041,0.246,0.062,0.393,0.062c0.199,0,0.383-0.038,0.549-0.114c0.168-0.076,0.313-0.182,0.434-0.316
			s0.217-0.296,0.285-0.483s0.104-0.392,0.104-0.61v-0.444L128.08,328.955z"/>
		<path fill="#5E5E5E" d="M133.367,330.33c0.084,0.067,0.178,0.127,0.277,0.18s0.201,0.099,0.307,0.137s0.213,0.066,0.318,0.086
			c0.107,0.019,0.209,0.028,0.307,0.028c0.668,0,1.002-0.251,1.002-0.751c0-0.115-0.023-0.214-0.07-0.297
			c-0.047-0.084-0.115-0.16-0.203-0.229c-0.088-0.069-0.193-0.133-0.316-0.191s-0.262-0.12-0.418-0.185
			c-0.207-0.085-0.387-0.171-0.535-0.259c-0.15-0.088-0.273-0.185-0.369-0.288c-0.098-0.104-0.168-0.219-0.215-0.343
			c-0.047-0.125-0.07-0.266-0.07-0.424c0-0.199,0.043-0.377,0.129-0.532s0.203-0.287,0.35-0.396s0.316-0.191,0.508-0.248
			c0.191-0.058,0.393-0.086,0.604-0.086c0.391,0,0.73,0.073,1.02,0.22v0.593c-0.336-0.216-0.699-0.324-1.09-0.324
			c-0.141,0-0.268,0.018-0.385,0.053c-0.115,0.035-0.215,0.085-0.297,0.148c-0.082,0.065-0.145,0.142-0.189,0.231
			c-0.047,0.089-0.068,0.188-0.068,0.296c0,0.112,0.018,0.209,0.053,0.293c0.035,0.083,0.09,0.159,0.164,0.227
			s0.172,0.131,0.291,0.193c0.117,0.061,0.262,0.127,0.432,0.197c0.217,0.088,0.404,0.175,0.563,0.262
			c0.158,0.086,0.289,0.18,0.391,0.281c0.104,0.101,0.18,0.214,0.229,0.338c0.051,0.125,0.076,0.27,0.076,0.434
			c0,0.201-0.043,0.382-0.125,0.54c-0.084,0.158-0.199,0.292-0.348,0.399c-0.148,0.109-0.322,0.191-0.521,0.246
			c-0.199,0.056-0.416,0.084-0.65,0.084c-0.453,0-0.836-0.096-1.146-0.285V330.33z"/>
		<path fill="#5E5E5E" d="M139.871,331.139v-0.8h-0.018c-0.146,0.287-0.346,0.51-0.6,0.668s-0.541,0.237-0.859,0.237
			c-0.217,0-0.412-0.031-0.586-0.092c-0.176-0.063-0.322-0.149-0.445-0.262c-0.121-0.113-0.215-0.248-0.281-0.406
			c-0.064-0.158-0.098-0.333-0.098-0.523c0-0.407,0.125-0.731,0.377-0.974c0.252-0.241,0.633-0.398,1.143-0.472l1.367-0.198
			c0-0.864-0.336-1.296-1.006-1.296c-0.525,0-1.012,0.191-1.459,0.575v-0.615c0.094-0.067,0.199-0.128,0.318-0.183
			c0.119-0.054,0.244-0.101,0.375-0.141c0.133-0.039,0.268-0.07,0.406-0.092c0.141-0.022,0.275-0.033,0.406-0.033
			c0.502,0,0.881,0.141,1.137,0.422s0.385,0.7,0.385,1.257v2.927H139.871z M138.711,328.955c-0.203,0.029-0.375,0.065-0.52,0.109
			c-0.143,0.044-0.262,0.104-0.355,0.178c-0.094,0.075-0.162,0.167-0.207,0.277c-0.043,0.109-0.064,0.245-0.064,0.406
			c0,0.12,0.021,0.231,0.063,0.334c0.043,0.103,0.105,0.191,0.186,0.266c0.08,0.075,0.178,0.133,0.295,0.174
			c0.115,0.041,0.246,0.062,0.393,0.062c0.199,0,0.383-0.038,0.549-0.114c0.168-0.076,0.313-0.182,0.434-0.316
			s0.217-0.296,0.285-0.483s0.104-0.392,0.104-0.61v-0.444L138.711,328.955z"/>
		<path fill="#5E5E5E" d="M141.787,331.139v-6.662h0.563v6.662H141.787z"/>
		<path fill="#5E5E5E" d="M146.393,331.139v-0.8h-0.018c-0.146,0.287-0.346,0.51-0.6,0.668s-0.541,0.237-0.859,0.237
			c-0.217,0-0.412-0.031-0.586-0.092c-0.176-0.063-0.322-0.149-0.445-0.262c-0.121-0.113-0.215-0.248-0.281-0.406
			c-0.064-0.158-0.098-0.333-0.098-0.523c0-0.407,0.125-0.731,0.377-0.974c0.252-0.241,0.633-0.398,1.143-0.472l1.367-0.198
			c0-0.864-0.336-1.296-1.006-1.296c-0.525,0-1.012,0.191-1.459,0.575v-0.615c0.094-0.067,0.199-0.128,0.318-0.183
			c0.119-0.054,0.244-0.101,0.375-0.141c0.133-0.039,0.268-0.07,0.406-0.092c0.141-0.022,0.275-0.033,0.406-0.033
			c0.502,0,0.881,0.141,1.137,0.422s0.385,0.7,0.385,1.257v2.927H146.393z M145.232,328.955c-0.203,0.029-0.375,0.065-0.52,0.109
			c-0.143,0.044-0.262,0.104-0.355,0.178c-0.094,0.075-0.162,0.167-0.207,0.277c-0.043,0.109-0.064,0.245-0.064,0.406
			c0,0.12,0.021,0.231,0.063,0.334c0.043,0.103,0.105,0.191,0.186,0.266c0.08,0.075,0.178,0.133,0.295,0.174
			c0.115,0.041,0.246,0.062,0.393,0.062c0.199,0,0.383-0.038,0.549-0.114c0.168-0.076,0.313-0.182,0.434-0.316
			s0.217-0.296,0.285-0.483s0.104-0.392,0.104-0.61v-0.444L145.232,328.955z"/>
		<path fill="#5E5E5E" d="M153.768,330.937c-0.334,0.202-0.738,0.306-1.213,0.312c-0.322,0.003-0.613-0.053-0.871-0.166
			c-0.258-0.115-0.477-0.273-0.658-0.478c-0.182-0.203-0.322-0.443-0.418-0.721c-0.098-0.276-0.145-0.577-0.145-0.903
			c0-0.336,0.051-0.653,0.152-0.951c0.104-0.297,0.252-0.557,0.449-0.777c0.195-0.222,0.436-0.396,0.721-0.525
			c0.283-0.129,0.609-0.193,0.975-0.193c0.373,0,0.713,0.072,1.02,0.215v0.598c-0.328-0.216-0.682-0.324-1.063-0.324
			c-0.268,0-0.504,0.05-0.713,0.151c-0.207,0.101-0.383,0.238-0.523,0.413c-0.143,0.174-0.252,0.378-0.326,0.61
			c-0.074,0.233-0.111,0.48-0.111,0.741c0,0.24,0.031,0.47,0.094,0.689s0.16,0.414,0.291,0.582c0.129,0.169,0.295,0.303,0.494,0.402
			s0.434,0.149,0.703,0.149c0.422,0,0.803-0.126,1.143-0.378V330.937z"/>
		<path fill="#5E5E5E" d="M155.115,328.99c0.004,0.275,0.039,0.522,0.109,0.742s0.172,0.406,0.305,0.559
			c0.131,0.152,0.291,0.269,0.48,0.349c0.189,0.081,0.402,0.121,0.639,0.121c0.508,0,0.986-0.177,1.438-0.532v0.555
			c-0.43,0.307-0.951,0.461-1.564,0.461c-0.301,0-0.576-0.053-0.822-0.158s-0.455-0.259-0.627-0.459
			c-0.174-0.201-0.307-0.447-0.4-0.74s-0.141-0.627-0.141-1.002c0-0.337,0.051-0.649,0.154-0.937
			c0.102-0.287,0.244-0.535,0.426-0.745c0.182-0.209,0.396-0.373,0.646-0.492c0.248-0.118,0.521-0.178,0.816-0.178
			c0.291,0,0.547,0.051,0.77,0.151c0.223,0.102,0.41,0.246,0.561,0.433c0.15,0.188,0.266,0.417,0.344,0.686
			c0.08,0.271,0.119,0.572,0.119,0.906v0.281H155.115z M157.787,328.498c-0.008-0.469-0.119-0.832-0.334-1.09
			c-0.213-0.258-0.512-0.387-0.893-0.387c-0.189,0-0.365,0.033-0.529,0.101c-0.162,0.067-0.305,0.165-0.428,0.292
			c-0.123,0.128-0.225,0.283-0.305,0.466c-0.082,0.184-0.139,0.39-0.17,0.618H157.787z"/>
		<path fill="#5E5E5E" d="M161.703,327.215c-0.133-0.098-0.303-0.146-0.51-0.146c-0.15,0-0.281,0.028-0.396,0.086
			c-0.113,0.057-0.213,0.134-0.301,0.23c-0.086,0.097-0.158,0.209-0.219,0.336c-0.061,0.128-0.109,0.261-0.145,0.397
			c-0.037,0.139-0.064,0.277-0.08,0.418s-0.023,0.274-0.023,0.4v2.201h-0.559v-4.5h0.559v0.963h0.018
			c0.053-0.164,0.119-0.312,0.199-0.442c0.08-0.13,0.174-0.24,0.279-0.329c0.105-0.09,0.221-0.157,0.346-0.205
			c0.123-0.046,0.254-0.07,0.393-0.07c0.09,0,0.172,0.007,0.244,0.018c0.072,0.013,0.137,0.03,0.195,0.053V327.215z"/>
		<path fill="#5E5E5E" d="M164.713,331.086c-0.193,0.097-0.404,0.145-0.633,0.145c-0.727,0-1.09-0.418-1.09-1.256v-2.844h-0.791
			v-0.492h0.791v-1.134l0.563-0.185v1.318h1.16v0.492h-1.16v2.756c0,0.305,0.051,0.524,0.15,0.658
			c0.1,0.136,0.268,0.203,0.506,0.203c0.176,0,0.344-0.053,0.504-0.158V331.086z"/>
		<path fill="#5E5E5E" d="M168.232,331.139v-0.8h-0.018c-0.146,0.287-0.346,0.51-0.6,0.668c-0.252,0.158-0.539,0.237-0.859,0.237
			c-0.217,0-0.412-0.031-0.586-0.092c-0.174-0.063-0.322-0.149-0.443-0.262c-0.121-0.113-0.215-0.248-0.281-0.406
			s-0.1-0.333-0.1-0.523c0-0.407,0.127-0.731,0.379-0.974c0.252-0.241,0.633-0.398,1.143-0.472l1.365-0.198
			c0-0.864-0.334-1.296-1.006-1.296c-0.523,0-1.01,0.191-1.459,0.575v-0.615c0.094-0.067,0.201-0.128,0.318-0.183
			c0.119-0.054,0.244-0.101,0.377-0.141c0.131-0.039,0.268-0.07,0.406-0.092c0.139-0.022,0.273-0.033,0.406-0.033
			c0.5,0,0.879,0.141,1.137,0.422c0.256,0.281,0.383,0.7,0.383,1.257v2.927H168.232z M167.072,328.955
			c-0.201,0.029-0.375,0.065-0.518,0.109c-0.145,0.044-0.262,0.104-0.355,0.178c-0.094,0.075-0.164,0.167-0.207,0.277
			c-0.045,0.109-0.066,0.245-0.066,0.406c0,0.12,0.021,0.231,0.064,0.334s0.104,0.191,0.184,0.266
			c0.082,0.075,0.18,0.133,0.295,0.174s0.246,0.062,0.393,0.062c0.199,0,0.383-0.038,0.551-0.114
			c0.166-0.076,0.311-0.182,0.432-0.316c0.123-0.135,0.217-0.296,0.287-0.483c0.068-0.188,0.102-0.392,0.102-0.61v-0.444
			L167.072,328.955z"/>
		<path fill="#5E5E5E" d="M175.207,331.139v-0.8h-0.018c-0.146,0.287-0.346,0.51-0.6,0.668s-0.541,0.237-0.859,0.237
			c-0.217,0-0.412-0.031-0.586-0.092c-0.176-0.063-0.322-0.149-0.445-0.262c-0.121-0.113-0.215-0.248-0.281-0.406
			c-0.064-0.158-0.098-0.333-0.098-0.523c0-0.407,0.125-0.731,0.377-0.974c0.252-0.241,0.633-0.398,1.143-0.472l1.367-0.198
			c0-0.864-0.336-1.296-1.006-1.296c-0.525,0-1.012,0.191-1.459,0.575v-0.615c0.094-0.067,0.199-0.128,0.318-0.183
			c0.119-0.054,0.244-0.101,0.375-0.141c0.133-0.039,0.268-0.07,0.406-0.092c0.141-0.022,0.275-0.033,0.406-0.033
			c0.502,0,0.881,0.141,1.137,0.422s0.385,0.7,0.385,1.257v2.927H175.207z M174.047,328.955c-0.203,0.029-0.375,0.065-0.52,0.109
			c-0.143,0.044-0.262,0.104-0.355,0.178c-0.094,0.075-0.162,0.167-0.207,0.277c-0.043,0.109-0.064,0.245-0.064,0.406
			c0,0.12,0.021,0.231,0.063,0.334c0.043,0.103,0.105,0.191,0.186,0.266c0.08,0.075,0.178,0.133,0.295,0.174
			c0.115,0.041,0.246,0.062,0.393,0.062c0.199,0,0.383-0.038,0.549-0.114c0.168-0.076,0.313-0.182,0.434-0.316
			s0.217-0.296,0.285-0.483s0.104-0.392,0.104-0.61v-0.444L174.047,328.955z"/>
		<path fill="#5E5E5E" d="M180.842,330.791c0,0.836-0.189,1.454-0.568,1.857c-0.381,0.402-0.965,0.604-1.756,0.604
			c-0.492,0-0.959-0.109-1.398-0.329v-0.571c0.49,0.272,0.955,0.408,1.398,0.408c1.174,0,1.762-0.621,1.762-1.863v-0.54h-0.018
			c-0.346,0.592-0.873,0.888-1.582,0.888c-0.279,0-0.533-0.052-0.762-0.154c-0.23-0.102-0.428-0.25-0.592-0.443
			s-0.291-0.429-0.383-0.705c-0.09-0.277-0.137-0.59-0.137-0.938c0-0.369,0.049-0.705,0.146-1.009
			c0.096-0.303,0.234-0.563,0.412-0.779c0.18-0.217,0.395-0.385,0.648-0.504c0.254-0.118,0.539-0.178,0.855-0.178
			c0.635,0,1.1,0.258,1.393,0.773h0.018v-0.668h0.563V330.791z M180.279,328.405c0-0.188-0.033-0.364-0.102-0.532
			c-0.066-0.166-0.16-0.313-0.281-0.439c-0.119-0.125-0.262-0.226-0.428-0.301c-0.166-0.074-0.348-0.111-0.547-0.111
			c-0.234,0-0.447,0.045-0.635,0.136c-0.189,0.091-0.352,0.22-0.484,0.387s-0.236,0.37-0.307,0.608
			c-0.072,0.239-0.109,0.508-0.109,0.807c0,0.275,0.035,0.524,0.102,0.747c0.068,0.223,0.162,0.412,0.285,0.567
			s0.273,0.275,0.447,0.359c0.174,0.086,0.367,0.128,0.582,0.128c0.223,0,0.424-0.04,0.605-0.121
			c0.182-0.08,0.338-0.191,0.467-0.334c0.129-0.142,0.229-0.309,0.299-0.501c0.07-0.191,0.105-0.398,0.105-0.621V328.405z"/>
		<path fill="#5E5E5E" d="M184.133,331.244c-0.334,0-0.633-0.056-0.898-0.167s-0.492-0.269-0.68-0.473
			c-0.188-0.203-0.33-0.447-0.43-0.731s-0.15-0.599-0.15-0.945c0-0.374,0.053-0.71,0.158-1.006s0.256-0.547,0.451-0.754
			c0.195-0.206,0.43-0.363,0.705-0.473c0.275-0.107,0.584-0.162,0.924-0.162c0.324,0,0.617,0.054,0.879,0.16
			c0.26,0.107,0.48,0.262,0.662,0.464s0.322,0.448,0.418,0.738c0.098,0.29,0.145,0.62,0.145,0.989c0,0.352-0.049,0.671-0.15,0.96
			c-0.102,0.288-0.246,0.537-0.434,0.745s-0.416,0.369-0.686,0.482C184.777,331.188,184.473,331.244,184.133,331.244z
			 M184.178,327.021c-0.246,0-0.469,0.042-0.668,0.127s-0.371,0.209-0.512,0.371c-0.143,0.163-0.252,0.362-0.328,0.598
			c-0.076,0.236-0.115,0.504-0.115,0.803c0,0.281,0.039,0.534,0.115,0.76s0.184,0.419,0.322,0.58
			c0.141,0.161,0.309,0.285,0.508,0.371c0.199,0.087,0.422,0.13,0.668,0.13c0.252,0,0.475-0.042,0.668-0.125
			c0.193-0.084,0.357-0.205,0.492-0.365c0.135-0.159,0.236-0.354,0.307-0.587c0.068-0.23,0.102-0.494,0.102-0.791
			c0-0.605-0.135-1.069-0.404-1.391C185.063,327.182,184.678,327.021,184.178,327.021z"/>
		<path fill="#5E5E5E" d="M189.682,327.215c-0.131-0.098-0.301-0.146-0.51-0.146c-0.148,0-0.281,0.028-0.395,0.086
			c-0.115,0.057-0.215,0.134-0.301,0.23s-0.16,0.209-0.221,0.336c-0.059,0.128-0.107,0.261-0.145,0.397
			c-0.037,0.139-0.063,0.277-0.078,0.418c-0.018,0.141-0.025,0.274-0.025,0.4v2.201h-0.559v-4.5h0.559v0.963h0.018
			c0.053-0.164,0.119-0.312,0.201-0.442c0.08-0.13,0.172-0.24,0.277-0.329c0.105-0.09,0.221-0.157,0.346-0.205
			c0.125-0.046,0.256-0.07,0.393-0.07c0.092,0,0.174,0.007,0.244,0.018c0.072,0.013,0.137,0.03,0.195,0.053V327.215z"/>
		<path fill="#5E5E5E" d="M193.094,331.139v-0.8h-0.018c-0.146,0.287-0.346,0.51-0.6,0.668s-0.541,0.237-0.859,0.237
			c-0.217,0-0.412-0.031-0.586-0.092c-0.176-0.063-0.322-0.149-0.445-0.262c-0.121-0.113-0.215-0.248-0.281-0.406
			c-0.064-0.158-0.098-0.333-0.098-0.523c0-0.407,0.125-0.731,0.377-0.974c0.252-0.241,0.633-0.398,1.143-0.472l1.367-0.198
			c0-0.864-0.336-1.296-1.006-1.296c-0.525,0-1.012,0.191-1.459,0.575v-0.615c0.094-0.067,0.199-0.128,0.318-0.183
			c0.119-0.054,0.244-0.101,0.375-0.141c0.133-0.039,0.268-0.07,0.406-0.092c0.141-0.022,0.275-0.033,0.406-0.033
			c0.502,0,0.881,0.141,1.137,0.422s0.385,0.7,0.385,1.257v2.927H193.094z M191.934,328.955c-0.203,0.029-0.375,0.065-0.52,0.109
			c-0.143,0.044-0.262,0.104-0.355,0.178c-0.094,0.075-0.162,0.167-0.207,0.277c-0.043,0.109-0.064,0.245-0.064,0.406
			c0,0.12,0.021,0.231,0.063,0.334c0.043,0.103,0.105,0.191,0.186,0.266c0.08,0.075,0.178,0.133,0.295,0.174
			c0.115,0.041,0.246,0.062,0.393,0.062c0.199,0,0.383-0.038,0.549-0.114c0.168-0.076,0.313-0.182,0.434-0.316
			s0.217-0.296,0.285-0.483s0.104-0.392,0.104-0.61v-0.444L191.934,328.955z"/>
		<path fill="#5E5E5E" d="M35.031,335.809c-0.126-0.082-0.289-0.123-0.487-0.123c-0.527,0-0.791,0.344-0.791,1.032v0.721h1.12v0.492
			h-1.12v4.008H33.19v-4.008h-0.787v-0.492h0.787v-0.756c0-0.226,0.028-0.43,0.085-0.613c0.058-0.183,0.142-0.34,0.253-0.47
			c0.111-0.131,0.251-0.23,0.42-0.301c0.168-0.07,0.362-0.105,0.582-0.105c0.211,0,0.378,0.027,0.501,0.083V335.809z"/>
		<path fill="#5E5E5E" d="M35.862,336.301c-0.108,0-0.202-0.038-0.281-0.115c-0.079-0.075-0.119-0.172-0.119-0.289
			c0-0.115,0.04-0.209,0.119-0.284c0.079-0.074,0.173-0.112,0.281-0.112c0.056,0,0.108,0.01,0.158,0.029
			c0.05,0.019,0.093,0.046,0.13,0.081c0.036,0.035,0.065,0.077,0.088,0.125c0.021,0.049,0.032,0.103,0.032,0.161
			c0,0.056-0.01,0.108-0.03,0.158s-0.05,0.093-0.088,0.129c-0.038,0.037-0.081,0.065-0.13,0.086
			C35.974,336.29,35.92,336.301,35.862,336.301z M35.584,341.938v-4.5h0.563v4.5H35.584z"/>
		<path fill="#5E5E5E" d="M40.589,341.736c-0.334,0.202-0.738,0.306-1.213,0.313c-0.322,0.002-0.612-0.053-0.87-0.168
			c-0.258-0.113-0.478-0.272-0.659-0.477c-0.182-0.203-0.321-0.443-0.417-0.721c-0.098-0.276-0.146-0.578-0.146-0.902
			c0-0.337,0.051-0.654,0.153-0.952c0.103-0.297,0.252-0.557,0.449-0.777c0.195-0.222,0.436-0.396,0.721-0.525
			c0.283-0.129,0.608-0.193,0.975-0.193c0.372,0,0.713,0.072,1.02,0.216v0.598c-0.328-0.217-0.683-0.326-1.063-0.326
			c-0.268,0-0.505,0.051-0.713,0.152c-0.208,0.101-0.383,0.238-0.524,0.413c-0.143,0.174-0.251,0.378-0.325,0.61
			c-0.075,0.233-0.112,0.48-0.112,0.74c0,0.241,0.031,0.471,0.095,0.69c0.063,0.22,0.159,0.414,0.29,0.582
			c0.13,0.169,0.295,0.303,0.494,0.402s0.434,0.149,0.703,0.149c0.422,0,0.803-0.126,1.143-0.378V341.736z"/>
		<path fill="#5E5E5E" d="M43.512,342.044c-0.334,0-0.634-0.056-0.898-0.167c-0.266-0.111-0.492-0.269-0.68-0.473
			c-0.188-0.203-0.331-0.447-0.43-0.731c-0.101-0.284-0.15-0.599-0.15-0.944c0-0.375,0.053-0.711,0.158-1.007
			s0.256-0.547,0.451-0.754c0.194-0.206,0.43-0.363,0.705-0.472s0.583-0.163,0.923-0.163c0.325,0,0.618,0.054,0.879,0.16
			c0.261,0.107,0.481,0.262,0.663,0.464s0.321,0.448,0.418,0.738s0.145,0.619,0.145,0.988c0,0.352-0.05,0.672-0.151,0.961
			c-0.101,0.288-0.245,0.537-0.433,0.744c-0.188,0.209-0.416,0.369-0.686,0.484C44.157,341.986,43.852,342.044,43.512,342.044z
			 M43.556,337.82c-0.246,0-0.469,0.043-0.668,0.128s-0.37,0.209-0.512,0.371c-0.143,0.163-0.252,0.362-0.327,0.598
			c-0.077,0.236-0.115,0.503-0.115,0.802c0,0.281,0.038,0.535,0.115,0.761c0.075,0.226,0.184,0.419,0.322,0.58
			c0.14,0.161,0.309,0.285,0.508,0.371c0.199,0.087,0.422,0.13,0.668,0.13c0.252,0,0.475-0.042,0.668-0.125
			c0.193-0.084,0.357-0.205,0.492-0.365c0.135-0.159,0.236-0.354,0.306-0.586c0.068-0.231,0.103-0.495,0.103-0.791
			c0-0.607-0.135-1.07-0.404-1.392C44.442,337.981,44.057,337.82,43.556,337.82z"/>
		<path fill="#5E5E5E" d="M49.774,341.938v-0.765h-0.018c-0.305,0.58-0.777,0.87-1.419,0.87c-1.069,0-1.604-0.653-1.604-1.96v-2.646
			h0.563v2.54c0,0.539,0.097,0.938,0.288,1.195c0.192,0.258,0.485,0.387,0.882,0.387c0.193,0,0.369-0.037,0.529-0.112
			c0.159-0.074,0.297-0.18,0.413-0.316c0.115-0.136,0.205-0.299,0.271-0.489c0.063-0.19,0.096-0.401,0.096-0.633v-2.571h0.563v4.5
			H49.774z"/>
		<path fill="#5E5E5E" d="M56.349,335.809c-0.126-0.082-0.289-0.123-0.487-0.123c-0.527,0-0.791,0.344-0.791,1.032v0.721h1.12v0.492
			h-1.12v4.008h-0.563v-4.008h-0.787v-0.492h0.787v-0.756c0-0.226,0.028-0.43,0.085-0.613c0.058-0.183,0.142-0.34,0.253-0.47
			c0.111-0.131,0.251-0.23,0.42-0.301c0.168-0.07,0.362-0.105,0.582-0.105c0.211,0,0.378,0.027,0.501,0.083V335.809z"/>
		<path fill="#5E5E5E" d="M59.495,341.938v-0.8h-0.018c-0.146,0.287-0.346,0.51-0.6,0.668c-0.253,0.158-0.54,0.237-0.859,0.237
			c-0.217,0-0.412-0.03-0.586-0.093c-0.175-0.061-0.322-0.148-0.444-0.261c-0.121-0.113-0.215-0.249-0.281-0.407
			c-0.065-0.158-0.099-0.332-0.099-0.522c0-0.407,0.126-0.731,0.378-0.974c0.252-0.241,0.633-0.398,1.143-0.473l1.366-0.197
			c0-0.864-0.335-1.297-1.006-1.297c-0.524,0-1.011,0.192-1.459,0.576v-0.615c0.094-0.067,0.2-0.128,0.318-0.183
			c0.119-0.054,0.244-0.101,0.376-0.141c0.132-0.039,0.268-0.07,0.406-0.092c0.14-0.022,0.274-0.033,0.407-0.033
			c0.5,0,0.879,0.141,1.136,0.422c0.256,0.281,0.384,0.7,0.384,1.257v2.927H59.495z M58.334,339.754
			c-0.201,0.03-0.375,0.066-0.518,0.11c-0.145,0.044-0.263,0.104-0.356,0.178c-0.094,0.075-0.163,0.167-0.206,0.277
			c-0.045,0.109-0.066,0.245-0.066,0.406c0,0.12,0.021,0.231,0.063,0.334c0.043,0.103,0.104,0.191,0.185,0.266
			c0.081,0.075,0.179,0.133,0.295,0.174c0.115,0.041,0.246,0.062,0.393,0.062c0.199,0,0.383-0.038,0.55-0.114
			s0.312-0.182,0.433-0.316c0.122-0.135,0.217-0.296,0.286-0.483c0.068-0.188,0.103-0.391,0.103-0.611v-0.443L58.334,339.754z
			 M58.256,336.652h-0.475l1.002-1.441h0.593L58.256,336.652z"/>
		<path fill="#5E5E5E" d="M64.404,341.736c-0.334,0.202-0.738,0.306-1.213,0.313c-0.322,0.002-0.612-0.053-0.87-0.168
			c-0.258-0.113-0.478-0.272-0.659-0.477c-0.182-0.203-0.321-0.443-0.417-0.721c-0.098-0.276-0.146-0.578-0.146-0.902
			c0-0.337,0.051-0.654,0.153-0.952c0.103-0.297,0.252-0.557,0.449-0.777c0.195-0.222,0.436-0.396,0.721-0.525
			c0.283-0.129,0.608-0.193,0.975-0.193c0.372,0,0.713,0.072,1.02,0.216v0.598c-0.328-0.217-0.683-0.326-1.063-0.326
			c-0.268,0-0.505,0.051-0.713,0.152c-0.208,0.101-0.383,0.238-0.524,0.413c-0.143,0.174-0.251,0.378-0.325,0.61
			c-0.075,0.233-0.112,0.48-0.112,0.74c0,0.241,0.031,0.471,0.095,0.69c0.063,0.22,0.159,0.414,0.29,0.582
			c0.13,0.169,0.295,0.303,0.494,0.402s0.434,0.149,0.703,0.149c0.422,0,0.803-0.126,1.143-0.378V341.736z"/>
		<path fill="#5E5E5E" d="M65.762,336.301c-0.108,0-0.202-0.038-0.281-0.115c-0.079-0.075-0.119-0.172-0.119-0.289
			c0-0.115,0.04-0.209,0.119-0.284c0.079-0.074,0.173-0.112,0.281-0.112c0.056,0,0.108,0.01,0.158,0.029
			c0.05,0.019,0.093,0.046,0.13,0.081c0.036,0.035,0.065,0.077,0.088,0.125c0.021,0.049,0.032,0.103,0.032,0.161
			c0,0.056-0.01,0.108-0.03,0.158s-0.05,0.093-0.088,0.129c-0.038,0.037-0.081,0.065-0.13,0.086
			C65.875,336.29,65.821,336.301,65.762,336.301z M65.485,341.938v-4.5h0.563v4.5H65.485z"/>
		<path fill="#5E5E5E" d="M67.497,341.938v-6.662h0.563v6.662H67.497z"/>
		<path fill="#5E5E5E" d="M69.401,343.063h-0.426l0.584-2.122h0.576L69.401,343.063z"/>
		<path fill="#5E5E5E" d="M74.216,339.789c0.003,0.276,0.04,0.523,0.11,0.743s0.171,0.406,0.303,0.558
			c0.132,0.153,0.292,0.27,0.481,0.35c0.188,0.081,0.401,0.121,0.64,0.121c0.506,0,0.985-0.177,1.437-0.531v0.553
			c-0.431,0.309-0.952,0.462-1.564,0.462c-0.302,0-0.575-0.053-0.821-0.158s-0.456-0.259-0.629-0.459
			c-0.173-0.201-0.307-0.447-0.4-0.741c-0.094-0.292-0.141-0.626-0.141-1.002c0-0.336,0.052-0.648,0.154-0.936
			s0.244-0.535,0.426-0.745c0.182-0.209,0.397-0.373,0.646-0.492c0.249-0.118,0.521-0.178,0.817-0.178
			c0.29,0,0.546,0.051,0.769,0.151c0.223,0.102,0.41,0.246,0.561,0.434c0.151,0.188,0.266,0.416,0.346,0.686
			c0.078,0.27,0.118,0.57,0.118,0.904v0.281H74.216z M76.888,339.297c-0.009-0.468-0.12-0.831-0.334-1.09
			c-0.214-0.257-0.512-0.387-0.892-0.387c-0.191,0-0.367,0.034-0.53,0.102c-0.162,0.067-0.306,0.165-0.429,0.292
			c-0.123,0.128-0.225,0.283-0.305,0.466c-0.081,0.184-0.138,0.389-0.17,0.617H76.888z M75.464,336.652H74.99l1.002-1.441h0.593
			L75.464,336.652z"/>
		<path fill="#5E5E5E" d="M80.782,341.13c0.085,0.067,0.178,0.128,0.277,0.181s0.202,0.098,0.308,0.136s0.212,0.066,0.318,0.086
			c0.107,0.019,0.209,0.028,0.306,0.028c0.668,0,1.002-0.25,1.002-0.752c0-0.113-0.023-0.213-0.07-0.296
			c-0.047-0.084-0.114-0.16-0.202-0.229c-0.088-0.069-0.193-0.133-0.316-0.191s-0.263-0.12-0.417-0.185
			c-0.209-0.085-0.387-0.172-0.537-0.26c-0.148-0.088-0.271-0.184-0.369-0.287c-0.096-0.104-0.168-0.219-0.215-0.343
			c-0.047-0.125-0.07-0.267-0.07-0.425c0-0.198,0.043-0.376,0.13-0.531c0.086-0.155,0.202-0.287,0.349-0.396
			s0.316-0.191,0.508-0.248c0.192-0.058,0.394-0.086,0.604-0.086c0.39,0,0.729,0.073,1.02,0.22v0.594
			c-0.337-0.217-0.7-0.326-1.09-0.326c-0.141,0-0.269,0.018-0.385,0.053c-0.115,0.035-0.215,0.086-0.296,0.15
			c-0.083,0.064-0.146,0.141-0.191,0.23c-0.046,0.089-0.068,0.188-0.068,0.297c0,0.111,0.018,0.208,0.053,0.292
			c0.035,0.083,0.09,0.159,0.165,0.226c0.074,0.068,0.171,0.133,0.29,0.193c0.118,0.063,0.263,0.128,0.433,0.198
			c0.217,0.088,0.404,0.175,0.563,0.262c0.158,0.086,0.288,0.18,0.392,0.281c0.102,0.101,0.178,0.214,0.229,0.338
			c0.049,0.125,0.074,0.27,0.074,0.433c0,0.203-0.042,0.383-0.125,0.541c-0.084,0.158-0.199,0.292-0.348,0.4
			c-0.147,0.108-0.321,0.19-0.521,0.246c-0.199,0.055-0.416,0.083-0.65,0.083c-0.454,0-0.837-0.096-1.147-0.286V341.13z"/>
		<path fill="#5E5E5E" d="M86.535,342.044c-0.334,0-0.634-0.056-0.898-0.167c-0.266-0.111-0.492-0.269-0.679-0.473
			c-0.188-0.203-0.332-0.447-0.432-0.731s-0.148-0.599-0.148-0.944c0-0.375,0.053-0.711,0.158-1.007s0.255-0.547,0.45-0.754
			c0.194-0.206,0.43-0.363,0.705-0.472s0.583-0.163,0.923-0.163c0.325,0,0.618,0.054,0.879,0.16
			c0.261,0.107,0.481,0.262,0.664,0.464c0.181,0.202,0.32,0.448,0.417,0.738s0.146,0.619,0.146,0.988
			c0,0.352-0.051,0.672-0.152,0.961c-0.101,0.288-0.245,0.537-0.433,0.744c-0.188,0.209-0.416,0.369-0.686,0.484
			C87.179,341.986,86.875,342.044,86.535,342.044z M86.579,337.82c-0.246,0-0.469,0.043-0.668,0.128s-0.37,0.209-0.512,0.371
			c-0.143,0.163-0.252,0.362-0.328,0.598c-0.076,0.236-0.113,0.503-0.113,0.802c0,0.281,0.037,0.535,0.113,0.761
			s0.185,0.419,0.323,0.58c0.14,0.161,0.309,0.285,0.508,0.371c0.199,0.087,0.422,0.13,0.668,0.13c0.252,0,0.475-0.042,0.668-0.125
			c0.193-0.084,0.357-0.205,0.492-0.365c0.135-0.159,0.236-0.354,0.306-0.586c0.068-0.231,0.104-0.495,0.104-0.791
			c0-0.607-0.136-1.07-0.404-1.392C87.464,337.981,87.08,337.82,86.579,337.82z M86.438,336.652h-0.475l1.002-1.441h0.594
			L86.438,336.652z"/>
		<path fill="#5E5E5E" d="M94.25,341.886c-0.193,0.097-0.404,0.146-0.633,0.146c-0.727,0-1.09-0.419-1.09-1.258v-2.843h-0.791
			v-0.492h0.791v-1.134l0.563-0.185v1.318h1.16v0.492h-1.16v2.755c0,0.306,0.05,0.525,0.15,0.66
			c0.099,0.135,0.268,0.201,0.505,0.201c0.176,0,0.344-0.053,0.505-0.158V341.886z"/>
		<path fill="#5E5E5E" d="M95.456,336.301c-0.108,0-0.202-0.038-0.281-0.115c-0.079-0.075-0.119-0.172-0.119-0.289
			c0-0.115,0.04-0.209,0.119-0.284c0.079-0.074,0.173-0.112,0.281-0.112c0.056,0,0.108,0.01,0.158,0.029
			c0.05,0.019,0.093,0.046,0.13,0.081c0.036,0.035,0.065,0.077,0.088,0.125c0.021,0.049,0.032,0.103,0.032,0.161
			c0,0.056-0.01,0.108-0.03,0.158s-0.05,0.093-0.088,0.129c-0.038,0.037-0.081,0.065-0.13,0.086
			C95.568,336.29,95.514,336.301,95.456,336.301z M95.178,341.938v-4.5h0.563v4.5H95.178z"/>
		<path fill="#5E5E5E" d="M99.424,338.014c-0.133-0.096-0.303-0.145-0.51-0.145c-0.15,0-0.281,0.028-0.396,0.086
			c-0.113,0.057-0.214,0.134-0.301,0.23c-0.086,0.097-0.159,0.209-0.22,0.336c-0.06,0.128-0.108,0.261-0.145,0.398
			c-0.037,0.138-0.063,0.276-0.079,0.417c-0.017,0.141-0.024,0.274-0.024,0.399v2.202h-0.558v-4.5h0.558v0.962h0.018
			c0.053-0.163,0.119-0.311,0.2-0.441c0.08-0.13,0.174-0.24,0.279-0.329c0.105-0.09,0.22-0.157,0.345-0.204
			c0.124-0.047,0.255-0.07,0.394-0.07c0.09,0,0.172,0.006,0.243,0.018c0.072,0.012,0.137,0.029,0.196,0.053V338.014z"/>
		<path fill="#5E5E5E" d="M102.834,341.938v-0.8h-0.018c-0.147,0.287-0.347,0.51-0.601,0.668c-0.253,0.158-0.54,0.237-0.858,0.237
			c-0.218,0-0.413-0.03-0.587-0.093c-0.175-0.061-0.322-0.148-0.444-0.261c-0.121-0.113-0.215-0.249-0.281-0.407
			c-0.065-0.158-0.099-0.332-0.099-0.522c0-0.407,0.126-0.731,0.378-0.974c0.252-0.241,0.633-0.398,1.143-0.473l1.367-0.197
			c0-0.864-0.336-1.297-1.007-1.297c-0.524,0-1.011,0.192-1.459,0.576v-0.615c0.094-0.067,0.2-0.128,0.318-0.183
			c0.119-0.054,0.244-0.101,0.376-0.141c0.132-0.039,0.268-0.07,0.406-0.092c0.14-0.022,0.275-0.033,0.406-0.033
			c0.502,0,0.88,0.141,1.137,0.422c0.256,0.281,0.385,0.7,0.385,1.257v2.927H102.834z M101.674,339.754
			c-0.203,0.03-0.376,0.066-0.52,0.11s-0.262,0.104-0.355,0.178c-0.094,0.075-0.162,0.167-0.207,0.277
			c-0.043,0.109-0.065,0.245-0.065,0.406c0,0.12,0.021,0.231,0.063,0.334c0.043,0.103,0.104,0.191,0.185,0.266
			c0.081,0.075,0.179,0.133,0.295,0.174c0.115,0.041,0.246,0.062,0.394,0.062c0.198,0,0.382-0.038,0.549-0.114
			s0.312-0.182,0.433-0.316c0.122-0.135,0.217-0.296,0.286-0.483c0.068-0.188,0.104-0.391,0.104-0.611v-0.443L101.674,339.754z"/>
		<path fill="#5E5E5E" d="M106.982,338.014c-0.133-0.096-0.303-0.145-0.51-0.145c-0.15,0-0.281,0.028-0.396,0.086
			c-0.113,0.057-0.213,0.134-0.3,0.23c-0.086,0.097-0.159,0.209-0.22,0.336c-0.06,0.128-0.108,0.261-0.145,0.398
			c-0.037,0.138-0.063,0.276-0.079,0.417c-0.017,0.141-0.024,0.274-0.024,0.399v2.202h-0.558v-4.5h0.558v0.962h0.018
			c0.053-0.163,0.119-0.311,0.2-0.441c0.08-0.13,0.174-0.24,0.279-0.329c0.105-0.09,0.22-0.157,0.345-0.204
			c0.123-0.047,0.254-0.07,0.393-0.07c0.09,0,0.172,0.006,0.244,0.018s0.137,0.029,0.195,0.053V338.014z"/>
		<path fill="#5E5E5E" d="M113.209,341.938v-0.765h-0.018c-0.305,0.58-0.777,0.87-1.42,0.87c-1.068,0-1.604-0.653-1.604-1.96v-2.646
			h0.563v2.54c0,0.539,0.096,0.938,0.287,1.195c0.193,0.258,0.486,0.387,0.881,0.387c0.193,0,0.371-0.037,0.531-0.112
			c0.158-0.074,0.297-0.18,0.412-0.316c0.115-0.136,0.205-0.299,0.27-0.489s0.098-0.401,0.098-0.633v-2.571h0.563v4.5H113.209z"/>
		<path fill="#5E5E5E" d="M120.877,341.938v-2.646c0-0.27-0.02-0.497-0.061-0.684c-0.041-0.186-0.105-0.337-0.191-0.455
			c-0.086-0.116-0.197-0.201-0.33-0.254s-0.293-0.08-0.477-0.08c-0.164,0-0.32,0.039-0.467,0.117
			c-0.146,0.077-0.273,0.185-0.383,0.32c-0.111,0.137-0.197,0.297-0.26,0.481s-0.096,0.384-0.096,0.598v2.602h-0.563v-2.702
			c0-0.943-0.361-1.416-1.084-1.416c-0.168,0-0.322,0.038-0.467,0.112c-0.143,0.075-0.268,0.18-0.375,0.314s-0.191,0.297-0.25,0.485
			c-0.061,0.189-0.092,0.398-0.092,0.627v2.579h-0.563v-4.5h0.563v0.729h0.018c0.316-0.557,0.779-0.835,1.385-0.835
			c0.158,0,0.309,0.024,0.449,0.072c0.141,0.049,0.266,0.116,0.377,0.202c0.111,0.087,0.207,0.19,0.289,0.311
			c0.08,0.12,0.141,0.252,0.182,0.395c0.158-0.318,0.363-0.563,0.617-0.729c0.254-0.168,0.539-0.251,0.859-0.251
			c0.986,0,1.48,0.609,1.48,1.828v2.777H120.877z"/>
		<path fill="#5E5E5E" d="M125.387,341.938v-0.8h-0.018c-0.146,0.287-0.346,0.51-0.6,0.668s-0.541,0.237-0.859,0.237
			c-0.217,0-0.412-0.03-0.586-0.093c-0.176-0.061-0.322-0.148-0.445-0.261c-0.121-0.113-0.215-0.249-0.281-0.407
			c-0.064-0.158-0.098-0.332-0.098-0.522c0-0.407,0.125-0.731,0.377-0.974c0.252-0.241,0.633-0.398,1.143-0.473l1.367-0.197
			c0-0.864-0.336-1.297-1.006-1.297c-0.525,0-1.012,0.192-1.459,0.576v-0.615c0.094-0.067,0.199-0.128,0.318-0.183
			c0.119-0.054,0.244-0.101,0.375-0.141c0.133-0.039,0.268-0.07,0.406-0.092c0.141-0.022,0.275-0.033,0.406-0.033
			c0.502,0,0.881,0.141,1.137,0.422s0.385,0.7,0.385,1.257v2.927H125.387z M124.227,339.754c-0.203,0.03-0.375,0.066-0.52,0.11
			c-0.143,0.044-0.262,0.104-0.355,0.178c-0.094,0.075-0.162,0.167-0.207,0.277c-0.043,0.109-0.064,0.245-0.064,0.406
			c0,0.12,0.021,0.231,0.063,0.334c0.043,0.103,0.105,0.191,0.186,0.266c0.08,0.075,0.178,0.133,0.295,0.174
			c0.115,0.041,0.246,0.062,0.393,0.062c0.199,0,0.383-0.038,0.549-0.114c0.168-0.076,0.313-0.182,0.434-0.316
			s0.217-0.296,0.285-0.483s0.104-0.391,0.104-0.611v-0.443L124.227,339.754z"/>
		<path fill="#5E5E5E" d="M131.865,335.809c-0.127-0.082-0.289-0.123-0.488-0.123c-0.527,0-0.791,0.344-0.791,1.032v0.721h1.121
			v0.492h-1.121v4.008h-0.563v-4.008h-0.787v-0.492h0.787v-0.756c0-0.226,0.029-0.43,0.086-0.613c0.057-0.183,0.141-0.34,0.252-0.47
			c0.111-0.131,0.252-0.23,0.42-0.301s0.363-0.105,0.582-0.105c0.211,0,0.379,0.027,0.502,0.083V335.809z"/>
		<path fill="#5E5E5E" d="M134.26,342.044c-0.334,0-0.635-0.056-0.898-0.167c-0.266-0.111-0.492-0.269-0.68-0.473
			c-0.188-0.203-0.332-0.447-0.432-0.731s-0.148-0.599-0.148-0.944c0-0.375,0.053-0.711,0.158-1.007s0.256-0.547,0.451-0.754
			c0.193-0.206,0.43-0.363,0.705-0.472s0.582-0.163,0.922-0.163c0.326,0,0.619,0.054,0.879,0.16
			c0.262,0.107,0.482,0.262,0.664,0.464s0.32,0.448,0.418,0.738c0.096,0.29,0.145,0.619,0.145,0.988
			c0,0.352-0.051,0.672-0.152,0.961c-0.1,0.288-0.244,0.537-0.432,0.744c-0.188,0.209-0.416,0.369-0.686,0.484
			C134.904,341.986,134.6,342.044,134.26,342.044z M134.303,337.82c-0.246,0-0.469,0.043-0.668,0.128s-0.369,0.209-0.512,0.371
			c-0.143,0.163-0.252,0.362-0.328,0.598c-0.076,0.236-0.113,0.503-0.113,0.802c0,0.281,0.037,0.535,0.113,0.761
			s0.186,0.419,0.324,0.58s0.309,0.285,0.508,0.371c0.199,0.087,0.422,0.13,0.668,0.13c0.252,0,0.475-0.042,0.668-0.125
			c0.193-0.084,0.357-0.205,0.492-0.365c0.135-0.159,0.236-0.354,0.305-0.586s0.104-0.495,0.104-0.791
			c0-0.607-0.135-1.07-0.404-1.392C135.189,337.981,134.805,337.82,134.303,337.82z"/>
		<path fill="#5E5E5E" d="M139.51,341.886c-0.193,0.097-0.404,0.146-0.633,0.146c-0.727,0-1.09-0.419-1.09-1.258v-2.843h-0.791
			v-0.492h0.791v-1.134l0.563-0.185v1.318h1.16v0.492h-1.16v2.755c0,0.306,0.051,0.525,0.15,0.66s0.268,0.201,0.506,0.201
			c0.176,0,0.344-0.053,0.504-0.158V341.886z"/>
		<path fill="#5E5E5E" d="M142.209,342.044c-0.334,0-0.633-0.056-0.898-0.167s-0.492-0.269-0.68-0.473
			c-0.188-0.203-0.33-0.447-0.43-0.731s-0.15-0.599-0.15-0.944c0-0.375,0.053-0.711,0.158-1.007s0.256-0.547,0.451-0.754
			c0.195-0.206,0.43-0.363,0.705-0.472s0.584-0.163,0.924-0.163c0.324,0,0.617,0.054,0.879,0.16c0.26,0.107,0.48,0.262,0.662,0.464
			s0.322,0.448,0.418,0.738c0.098,0.29,0.145,0.619,0.145,0.988c0,0.352-0.049,0.672-0.15,0.961
			c-0.102,0.288-0.246,0.537-0.434,0.744c-0.188,0.209-0.416,0.369-0.686,0.484C142.854,341.986,142.549,342.044,142.209,342.044z
			 M142.254,337.82c-0.246,0-0.469,0.043-0.668,0.128s-0.371,0.209-0.512,0.371c-0.143,0.163-0.252,0.362-0.328,0.598
			c-0.076,0.236-0.115,0.503-0.115,0.802c0,0.281,0.039,0.535,0.115,0.761s0.184,0.419,0.322,0.58
			c0.141,0.161,0.309,0.285,0.508,0.371c0.199,0.087,0.422,0.13,0.668,0.13c0.252,0,0.475-0.042,0.668-0.125
			c0.193-0.084,0.357-0.205,0.492-0.365c0.135-0.159,0.236-0.354,0.307-0.586c0.068-0.231,0.102-0.495,0.102-0.791
			c0-0.607-0.135-1.07-0.404-1.392C143.139,337.981,142.754,337.82,142.254,337.82z"/>
		<path fill="#5E5E5E" d="M151.146,341.938v-0.791h-0.018c-0.148,0.284-0.361,0.505-0.639,0.661
			c-0.277,0.157-0.592,0.235-0.943,0.235c-0.281,0-0.535-0.052-0.766-0.156c-0.23-0.104-0.428-0.254-0.592-0.45
			s-0.291-0.434-0.379-0.712c-0.09-0.278-0.135-0.593-0.135-0.944c0-0.363,0.049-0.695,0.146-0.996c0.1-0.3,0.238-0.558,0.418-0.773
			c0.18-0.215,0.396-0.382,0.65-0.501c0.254-0.118,0.535-0.178,0.846-0.178c0.648,0,1.111,0.259,1.393,0.778h0.018v-2.835h0.563
			v6.662H151.146z M151.146,339.223c0-0.196-0.033-0.379-0.1-0.549c-0.068-0.17-0.162-0.318-0.281-0.444
			c-0.121-0.126-0.266-0.226-0.434-0.299s-0.354-0.11-0.557-0.11c-0.223,0-0.428,0.045-0.615,0.133s-0.348,0.214-0.48,0.38
			c-0.133,0.165-0.236,0.366-0.313,0.604c-0.074,0.236-0.111,0.507-0.111,0.809c0,0.284,0.033,0.539,0.102,0.764
			c0.066,0.227,0.162,0.417,0.287,0.572s0.273,0.273,0.445,0.355c0.174,0.082,0.365,0.123,0.576,0.123
			c0.229,0,0.436-0.041,0.617-0.123c0.184-0.082,0.34-0.194,0.467-0.338s0.225-0.313,0.295-0.506c0.068-0.193,0.102-0.4,0.102-0.619
			V339.223z"/>
		<path fill="#5E5E5E" d="M155.002,342.044c-0.334,0-0.635-0.056-0.898-0.167c-0.266-0.111-0.492-0.269-0.68-0.473
			c-0.188-0.203-0.332-0.447-0.432-0.731s-0.148-0.599-0.148-0.944c0-0.375,0.053-0.711,0.158-1.007s0.256-0.547,0.451-0.754
			c0.193-0.206,0.43-0.363,0.705-0.472s0.582-0.163,0.922-0.163c0.326,0,0.619,0.054,0.879,0.16
			c0.262,0.107,0.482,0.262,0.664,0.464s0.32,0.448,0.418,0.738c0.096,0.29,0.145,0.619,0.145,0.988
			c0,0.352-0.051,0.672-0.152,0.961c-0.1,0.288-0.244,0.537-0.432,0.744c-0.188,0.209-0.416,0.369-0.686,0.484
			C155.646,341.986,155.342,342.044,155.002,342.044z M155.045,337.82c-0.246,0-0.469,0.043-0.668,0.128s-0.369,0.209-0.512,0.371
			c-0.143,0.163-0.252,0.362-0.328,0.598c-0.076,0.236-0.113,0.503-0.113,0.802c0,0.281,0.037,0.535,0.113,0.761
			s0.186,0.419,0.324,0.58s0.309,0.285,0.508,0.371c0.199,0.087,0.422,0.13,0.668,0.13c0.252,0,0.475-0.042,0.668-0.125
			c0.193-0.084,0.357-0.205,0.492-0.365c0.135-0.159,0.236-0.354,0.305-0.586s0.104-0.495,0.104-0.791
			c0-0.607-0.135-1.07-0.404-1.392C155.932,337.981,155.547,337.82,155.045,337.82z"/>
		<path fill="#5E5E5E" d="M163.443,342.044c-0.445,0-0.85-0.078-1.211-0.233c-0.361-0.154-0.672-0.372-0.928-0.652
			c-0.256-0.279-0.453-0.615-0.594-1.006c-0.139-0.392-0.209-0.822-0.209-1.295c0-0.506,0.072-0.964,0.215-1.373
			c0.141-0.408,0.344-0.758,0.607-1.048s0.584-0.514,0.961-0.67c0.377-0.157,0.799-0.235,1.268-0.235
			c0.428,0,0.818,0.077,1.172,0.23c0.352,0.154,0.656,0.371,0.908,0.65c0.254,0.28,0.451,0.614,0.59,1.002
			c0.139,0.389,0.209,0.817,0.209,1.285c0,0.681-0.119,1.267-0.359,1.761c-0.238,0.493-0.572,0.875-1,1.145l1.74,1.183h-1.063
			l-1.266-0.906c-0.158,0.053-0.324,0.094-0.496,0.121C163.814,342.03,163.633,342.044,163.443,342.044z M163.49,336.063
			c-0.348,0-0.668,0.067-0.959,0.2c-0.291,0.134-0.543,0.32-0.752,0.561s-0.373,0.528-0.49,0.863
			c-0.117,0.336-0.176,0.707-0.176,1.114c0,0.41,0.057,0.782,0.168,1.116s0.268,0.62,0.469,0.856
			c0.203,0.238,0.447,0.421,0.732,0.55s0.604,0.193,0.955,0.193c0.367,0,0.697-0.062,0.99-0.185s0.543-0.302,0.748-0.536
			c0.207-0.234,0.365-0.521,0.477-0.859c0.111-0.338,0.168-0.721,0.168-1.149c0-0.43-0.055-0.813-0.162-1.15
			c-0.109-0.337-0.264-0.622-0.467-0.855c-0.201-0.232-0.447-0.41-0.734-0.533S163.848,336.063,163.49,336.063z"/>
		<path fill="#5E5E5E" d="M171.125,341.938l-0.949-1.806c-0.094-0.179-0.186-0.328-0.273-0.449
			c-0.088-0.119-0.178-0.216-0.271-0.287c-0.094-0.072-0.193-0.123-0.301-0.154c-0.107-0.03-0.227-0.046-0.359-0.046h-0.693v2.742
			h-0.584v-6.302h1.814c0.236,0,0.467,0.035,0.688,0.105s0.418,0.175,0.592,0.313c0.172,0.138,0.311,0.311,0.414,0.518
			c0.105,0.209,0.156,0.45,0.156,0.726c0,0.223-0.033,0.428-0.102,0.615c-0.066,0.188-0.162,0.354-0.287,0.499
			c-0.125,0.145-0.275,0.268-0.453,0.369c-0.176,0.101-0.377,0.177-0.6,0.227v0.018c0.086,0.035,0.162,0.08,0.232,0.136
			s0.139,0.123,0.205,0.202s0.131,0.17,0.195,0.272s0.133,0.22,0.203,0.352l1.059,1.951H171.125z M168.277,336.173v2.491h1.045
			c0.211,0,0.404-0.03,0.58-0.092s0.326-0.149,0.451-0.264s0.221-0.252,0.291-0.413c0.068-0.161,0.102-0.343,0.102-0.545
			c0-0.366-0.117-0.654-0.354-0.863c-0.234-0.21-0.576-0.314-1.021-0.314H168.277z"/>
		<path fill="#5E5E5E" d="M179.584,341.705c-0.486,0.229-1.041,0.344-1.666,0.344c-0.445,0-0.85-0.079-1.213-0.235
			c-0.363-0.157-0.672-0.374-0.928-0.653c-0.258-0.277-0.455-0.608-0.594-0.992s-0.209-0.803-0.209-1.258
			c0-0.477,0.074-0.922,0.223-1.333c0.146-0.412,0.359-0.77,0.635-1.072c0.275-0.304,0.607-0.541,1-0.714
			c0.391-0.173,0.828-0.26,1.314-0.26c0.537,0,1.016,0.082,1.438,0.246v0.624c-0.451-0.226-0.934-0.339-1.445-0.339
			c-0.408,0-0.77,0.07-1.086,0.211s-0.582,0.337-0.799,0.587c-0.217,0.251-0.383,0.547-0.498,0.888
			c-0.113,0.342-0.17,0.715-0.17,1.119c0,0.363,0.051,0.705,0.152,1.025c0.104,0.321,0.256,0.602,0.455,0.842
			c0.201,0.24,0.451,0.431,0.75,0.571s0.646,0.211,1.041,0.211c0.607,0,1.141-0.128,1.6-0.382V341.705z"/>
		<path fill="#5E5E5E" d="M182.678,342.044c-0.334,0-0.633-0.056-0.898-0.167s-0.492-0.269-0.68-0.473
			c-0.188-0.203-0.33-0.447-0.43-0.731s-0.15-0.599-0.15-0.944c0-0.375,0.053-0.711,0.158-1.007s0.256-0.547,0.451-0.754
			c0.195-0.206,0.43-0.363,0.705-0.472s0.584-0.163,0.924-0.163c0.324,0,0.617,0.054,0.879,0.16c0.26,0.107,0.48,0.262,0.662,0.464
			s0.322,0.448,0.418,0.738c0.098,0.29,0.145,0.619,0.145,0.988c0,0.352-0.049,0.672-0.15,0.961
			c-0.102,0.288-0.246,0.537-0.434,0.744c-0.188,0.209-0.416,0.369-0.686,0.484C183.322,341.986,183.018,342.044,182.678,342.044z
			 M182.723,337.82c-0.246,0-0.469,0.043-0.668,0.128s-0.371,0.209-0.512,0.371c-0.143,0.163-0.252,0.362-0.328,0.598
			c-0.076,0.236-0.115,0.503-0.115,0.802c0,0.281,0.039,0.535,0.115,0.761s0.184,0.419,0.322,0.58
			c0.141,0.161,0.309,0.285,0.508,0.371c0.199,0.087,0.422,0.13,0.668,0.13c0.252,0,0.475-0.042,0.668-0.125
			c0.193-0.084,0.357-0.205,0.492-0.365c0.135-0.159,0.236-0.354,0.307-0.586c0.068-0.231,0.102-0.495,0.102-0.791
			c0-0.607-0.135-1.07-0.404-1.392C183.607,337.981,183.223,337.82,182.723,337.82z"/>
		<path fill="#5E5E5E" d="M189.15,341.938v-0.791h-0.018c-0.148,0.284-0.361,0.505-0.639,0.661
			c-0.277,0.157-0.592,0.235-0.943,0.235c-0.281,0-0.535-0.052-0.766-0.156c-0.23-0.104-0.428-0.254-0.592-0.45
			s-0.291-0.434-0.379-0.712c-0.09-0.278-0.135-0.593-0.135-0.944c0-0.363,0.049-0.695,0.146-0.996c0.1-0.3,0.238-0.558,0.418-0.773
			c0.18-0.215,0.396-0.382,0.65-0.501c0.254-0.118,0.535-0.178,0.846-0.178c0.648,0,1.111,0.259,1.393,0.778h0.018v-2.835h0.563
			v6.662H189.15z M189.15,339.223c0-0.196-0.033-0.379-0.1-0.549c-0.068-0.17-0.162-0.318-0.281-0.444
			c-0.121-0.126-0.266-0.226-0.434-0.299s-0.354-0.11-0.557-0.11c-0.223,0-0.428,0.045-0.615,0.133s-0.348,0.214-0.48,0.38
			c-0.133,0.165-0.236,0.366-0.313,0.604c-0.074,0.236-0.111,0.507-0.111,0.809c0,0.284,0.033,0.539,0.102,0.764
			c0.066,0.227,0.162,0.417,0.287,0.572s0.273,0.273,0.445,0.355c0.174,0.082,0.365,0.123,0.576,0.123
			c0.229,0,0.436-0.041,0.617-0.123c0.184-0.082,0.34-0.194,0.467-0.338s0.225-0.313,0.295-0.506c0.068-0.193,0.102-0.4,0.102-0.619
			V339.223z"/>
		<path fill="#5E5E5E" d="M191.432,339.789c0.004,0.276,0.039,0.523,0.109,0.743s0.172,0.406,0.305,0.558
			c0.131,0.153,0.291,0.27,0.48,0.35c0.189,0.081,0.402,0.121,0.639,0.121c0.508,0,0.986-0.177,1.438-0.531v0.553
			c-0.43,0.309-0.951,0.462-1.564,0.462c-0.301,0-0.576-0.053-0.822-0.158s-0.455-0.259-0.627-0.459
			c-0.174-0.201-0.307-0.447-0.4-0.741c-0.094-0.292-0.141-0.626-0.141-1.002c0-0.336,0.051-0.648,0.154-0.936
			c0.102-0.287,0.244-0.535,0.426-0.745c0.182-0.209,0.396-0.373,0.646-0.492c0.248-0.118,0.521-0.178,0.816-0.178
			c0.291,0,0.547,0.051,0.77,0.151c0.223,0.102,0.41,0.246,0.561,0.434s0.266,0.416,0.344,0.686c0.08,0.27,0.119,0.57,0.119,0.904
			v0.281H191.432z M194.104,339.297c-0.008-0.468-0.119-0.831-0.334-1.09c-0.213-0.257-0.512-0.387-0.893-0.387
			c-0.189,0-0.365,0.034-0.529,0.102c-0.162,0.067-0.305,0.165-0.428,0.292c-0.123,0.128-0.225,0.283-0.305,0.466
			c-0.082,0.184-0.139,0.389-0.17,0.617H194.104z"/>
		<path fill="#5E5E5E" d="M36.09,354.809v-2.87h-0.018c-0.32,0.604-0.848,0.905-1.582,0.905c-0.285,0-0.543-0.053-0.773-0.158
			c-0.232-0.105-0.429-0.256-0.592-0.453c-0.162-0.195-0.287-0.434-0.375-0.714c-0.088-0.279-0.133-0.594-0.133-0.942
			c0-0.375,0.051-0.713,0.152-1.013c0.101-0.301,0.242-0.557,0.424-0.77c0.182-0.212,0.399-0.376,0.652-0.489
			c0.254-0.115,0.534-0.172,0.842-0.172c0.642,0,1.104,0.261,1.385,0.782h0.018v-0.677h0.563v6.57H36.09z M36.09,350.049
			c0-0.202-0.033-0.391-0.1-0.564c-0.065-0.175-0.159-0.325-0.279-0.453c-0.12-0.127-0.265-0.228-0.435-0.301
			s-0.359-0.109-0.567-0.109c-0.223,0-0.426,0.043-0.61,0.129c-0.185,0.087-0.344,0.212-0.477,0.376
			c-0.134,0.164-0.237,0.367-0.313,0.608c-0.074,0.242-0.112,0.517-0.112,0.824c0,0.281,0.034,0.533,0.102,0.756
			s0.162,0.412,0.285,0.566c0.123,0.156,0.27,0.274,0.439,0.356s0.357,0.123,0.563,0.123c0.24,0,0.454-0.042,0.64-0.125
			c0.187-0.084,0.343-0.197,0.471-0.341c0.127-0.144,0.225-0.313,0.292-0.506s0.102-0.4,0.102-0.623V350.049z"/>
		<path fill="#5E5E5E" d="M41.047,352.738v-0.765H41.03c-0.306,0.58-0.778,0.87-1.42,0.87c-1.069,0-1.604-0.653-1.604-1.96v-2.646
			h0.563v2.54c0,0.539,0.096,0.938,0.287,1.195c0.192,0.258,0.486,0.387,0.881,0.387c0.193,0,0.37-0.037,0.53-0.112
			c0.159-0.074,0.297-0.18,0.413-0.316c0.115-0.136,0.205-0.299,0.27-0.49c0.064-0.189,0.098-0.4,0.098-0.633v-2.57h0.563v4.5
			H41.047z"/>
		<path fill="#5E5E5E" d="M43.328,350.59c0.003,0.275,0.04,0.522,0.11,0.742s0.171,0.406,0.303,0.559s0.292,0.269,0.481,0.349
			c0.188,0.081,0.401,0.121,0.64,0.121c0.506,0,0.985-0.177,1.437-0.532v0.555c-0.431,0.307-0.952,0.461-1.564,0.461
			c-0.302,0-0.575-0.053-0.821-0.158s-0.456-0.259-0.629-0.459c-0.173-0.201-0.307-0.447-0.4-0.74s-0.141-0.627-0.141-1.002
			c0-0.337,0.052-0.649,0.154-0.937s0.244-0.535,0.426-0.745c0.182-0.209,0.397-0.373,0.646-0.492
			c0.249-0.118,0.521-0.178,0.817-0.178c0.29,0,0.546,0.051,0.769,0.151c0.223,0.102,0.41,0.246,0.561,0.433
			c0.151,0.188,0.266,0.417,0.346,0.686c0.078,0.271,0.118,0.572,0.118,0.906v0.281H43.328z M46,350.098
			c-0.009-0.469-0.12-0.832-0.334-1.09s-0.512-0.387-0.892-0.387c-0.191,0-0.367,0.033-0.53,0.101
			c-0.162,0.067-0.306,0.165-0.429,0.292c-0.123,0.128-0.225,0.283-0.305,0.466c-0.081,0.184-0.138,0.39-0.17,0.618H46z"/>
		<path fill="#5E5E5E" d="M50.416,350.59c0.003,0.275,0.04,0.522,0.11,0.742s0.171,0.406,0.303,0.559s0.292,0.269,0.481,0.349
			c0.188,0.081,0.401,0.121,0.64,0.121c0.506,0,0.985-0.177,1.437-0.532v0.555c-0.431,0.307-0.952,0.461-1.564,0.461
			c-0.302,0-0.575-0.053-0.821-0.158s-0.456-0.259-0.629-0.459c-0.173-0.201-0.307-0.447-0.4-0.74s-0.141-0.627-0.141-1.002
			c0-0.337,0.052-0.649,0.154-0.937s0.244-0.535,0.426-0.745c0.182-0.209,0.397-0.373,0.646-0.492
			c0.249-0.118,0.521-0.178,0.817-0.178c0.29,0,0.546,0.051,0.769,0.151c0.223,0.102,0.41,0.246,0.561,0.433
			c0.151,0.188,0.266,0.417,0.346,0.686c0.078,0.271,0.118,0.572,0.118,0.906v0.281H50.416z M53.087,350.098
			c-0.009-0.469-0.12-0.832-0.334-1.09s-0.512-0.387-0.892-0.387c-0.191,0-0.367,0.033-0.53,0.101
			c-0.162,0.067-0.306,0.165-0.429,0.292c-0.123,0.128-0.225,0.283-0.305,0.466c-0.081,0.184-0.138,0.39-0.17,0.618H53.087z"/>
		<path fill="#5E5E5E" d="M54.516,351.93c0.084,0.067,0.177,0.127,0.276,0.18s0.202,0.099,0.308,0.137s0.212,0.066,0.318,0.086
			c0.107,0.019,0.209,0.028,0.306,0.028c0.668,0,1.002-0.251,1.002-0.751c0-0.115-0.023-0.214-0.07-0.297
			c-0.047-0.084-0.114-0.16-0.202-0.229c-0.088-0.069-0.193-0.133-0.316-0.191s-0.263-0.12-0.418-0.185
			c-0.208-0.085-0.387-0.171-0.535-0.259c-0.15-0.088-0.273-0.185-0.369-0.288c-0.098-0.104-0.169-0.219-0.216-0.343
			c-0.047-0.125-0.07-0.266-0.07-0.424c0-0.199,0.043-0.377,0.13-0.532c0.086-0.155,0.202-0.287,0.35-0.396
			c0.146-0.108,0.315-0.191,0.507-0.248c0.192-0.058,0.394-0.086,0.604-0.086c0.39,0,0.729,0.073,1.02,0.22v0.593
			c-0.337-0.216-0.7-0.324-1.09-0.324c-0.141,0-0.269,0.018-0.385,0.053c-0.115,0.035-0.215,0.085-0.297,0.148
			c-0.082,0.065-0.146,0.142-0.19,0.231c-0.046,0.089-0.068,0.188-0.068,0.296c0,0.112,0.018,0.209,0.053,0.293
			c0.035,0.083,0.09,0.159,0.165,0.227c0.074,0.067,0.171,0.131,0.29,0.193c0.118,0.061,0.263,0.127,0.433,0.197
			c0.217,0.088,0.404,0.175,0.563,0.262c0.158,0.086,0.288,0.18,0.391,0.281c0.103,0.101,0.179,0.214,0.229,0.338
			c0.05,0.125,0.075,0.27,0.075,0.434c0,0.201-0.042,0.382-0.125,0.54c-0.084,0.158-0.199,0.292-0.348,0.399
			c-0.147,0.109-0.321,0.191-0.521,0.246c-0.199,0.056-0.416,0.084-0.65,0.084c-0.454,0-0.837-0.096-1.146-0.285V351.93z"/>
		<path fill="#5E5E5E" d="M60.36,352.686c-0.193,0.097-0.404,0.145-0.633,0.145c-0.727,0-1.09-0.418-1.09-1.256v-2.844h-0.791
			v-0.492h0.791v-1.134l0.563-0.185v1.318h1.16v0.492H59.2v2.756c0,0.305,0.05,0.524,0.15,0.658
			c0.099,0.136,0.268,0.203,0.505,0.203c0.176,0,0.344-0.053,0.505-0.158V352.686z"/>
		<path fill="#5E5E5E" d="M63.881,352.738v-0.8h-0.018c-0.147,0.287-0.347,0.51-0.601,0.668c-0.253,0.158-0.54,0.237-0.858,0.237
			c-0.218,0-0.413-0.031-0.587-0.092c-0.175-0.063-0.322-0.149-0.444-0.262c-0.121-0.113-0.215-0.248-0.281-0.406
			c-0.065-0.158-0.099-0.333-0.099-0.523c0-0.407,0.126-0.731,0.378-0.974c0.252-0.241,0.633-0.398,1.143-0.472l1.367-0.198
			c0-0.864-0.336-1.296-1.007-1.296c-0.524,0-1.011,0.191-1.459,0.575v-0.615c0.094-0.067,0.2-0.128,0.318-0.183
			c0.119-0.054,0.244-0.101,0.376-0.141c0.132-0.039,0.268-0.07,0.406-0.092c0.14-0.022,0.275-0.033,0.406-0.033
			c0.502,0,0.88,0.141,1.137,0.422c0.256,0.281,0.385,0.7,0.385,1.257v2.927H63.881z M62.721,350.555
			c-0.203,0.029-0.376,0.065-0.52,0.109s-0.262,0.104-0.355,0.178c-0.094,0.075-0.162,0.167-0.207,0.277
			c-0.043,0.109-0.065,0.245-0.065,0.406c0,0.12,0.021,0.231,0.063,0.334c0.043,0.103,0.104,0.191,0.185,0.266
			c0.081,0.075,0.179,0.133,0.295,0.174c0.115,0.041,0.246,0.062,0.394,0.062c0.198,0,0.382-0.038,0.549-0.114
			s0.312-0.182,0.433-0.316c0.122-0.135,0.217-0.296,0.286-0.483c0.068-0.188,0.104-0.392,0.104-0.61v-0.444L62.721,350.555z
			 M62.641,347.451h-0.475l1.002-1.441h0.594L62.641,347.451z"/>
		<path fill="#5E5E5E" d="M71.299,352.738v-2.593c0-1.017-0.369-1.524-1.107-1.524c-0.196,0-0.378,0.038-0.545,0.116
			c-0.167,0.077-0.312,0.186-0.433,0.323c-0.122,0.138-0.217,0.301-0.286,0.489c-0.068,0.189-0.104,0.394-0.104,0.613v2.575h-0.563
			v-4.5h0.563v0.782h0.018c0.334-0.592,0.837-0.888,1.508-0.888c0.492,0,0.867,0.16,1.125,0.479c0.258,0.32,0.387,0.781,0.387,1.385
			v2.742H71.299z"/>
		<path fill="#5E5E5E" d="M75.807,352.738v-0.8H75.79c-0.146,0.287-0.346,0.51-0.6,0.668c-0.253,0.158-0.54,0.237-0.859,0.237
			c-0.217,0-0.412-0.031-0.586-0.092c-0.175-0.063-0.322-0.149-0.444-0.262c-0.121-0.113-0.215-0.248-0.281-0.406
			c-0.065-0.158-0.099-0.333-0.099-0.523c0-0.407,0.126-0.731,0.378-0.974c0.252-0.241,0.633-0.398,1.143-0.472l1.366-0.198
			c0-0.864-0.335-1.296-1.006-1.296c-0.524,0-1.011,0.191-1.459,0.575v-0.615c0.094-0.067,0.2-0.128,0.318-0.183
			c0.119-0.054,0.244-0.101,0.376-0.141c0.132-0.039,0.268-0.07,0.406-0.092c0.14-0.022,0.274-0.033,0.407-0.033
			c0.5,0,0.879,0.141,1.136,0.422c0.256,0.281,0.384,0.7,0.384,1.257v2.927H75.807z M74.647,350.555
			c-0.201,0.029-0.375,0.065-0.518,0.109c-0.145,0.044-0.263,0.104-0.356,0.178c-0.094,0.075-0.163,0.167-0.206,0.277
			c-0.045,0.109-0.066,0.245-0.066,0.406c0,0.12,0.021,0.231,0.063,0.334c0.043,0.103,0.104,0.191,0.185,0.266
			c0.081,0.075,0.179,0.133,0.295,0.174c0.115,0.041,0.246,0.062,0.393,0.062c0.199,0,0.383-0.038,0.55-0.114
			s0.312-0.182,0.433-0.316c0.122-0.135,0.217-0.296,0.286-0.483c0.068-0.188,0.103-0.392,0.103-0.61v-0.444L74.647,350.555z"/>
		<path fill="#5E5E5E" d="M80.457,350.59c0.003,0.275,0.04,0.522,0.11,0.742s0.171,0.406,0.303,0.559s0.292,0.269,0.481,0.349
			c0.188,0.081,0.401,0.121,0.64,0.121c0.506,0,0.985-0.177,1.437-0.532v0.555c-0.431,0.307-0.952,0.461-1.564,0.461
			c-0.302,0-0.575-0.053-0.821-0.158s-0.456-0.259-0.629-0.459c-0.173-0.201-0.307-0.447-0.4-0.74s-0.141-0.627-0.141-1.002
			c0-0.337,0.052-0.649,0.154-0.937s0.244-0.535,0.426-0.745c0.182-0.209,0.397-0.373,0.646-0.492
			c0.249-0.118,0.521-0.178,0.817-0.178c0.29,0,0.546,0.051,0.769,0.151c0.223,0.102,0.41,0.246,0.561,0.433
			c0.151,0.188,0.266,0.417,0.346,0.686c0.078,0.271,0.118,0.572,0.118,0.906v0.281H80.457z M83.128,350.098
			c-0.009-0.469-0.12-0.832-0.334-1.09s-0.512-0.387-0.892-0.387c-0.191,0-0.367,0.033-0.53,0.101
			c-0.162,0.067-0.306,0.165-0.429,0.292c-0.123,0.128-0.225,0.283-0.305,0.466c-0.081,0.184-0.138,0.39-0.17,0.618H83.128z"/>
		<path fill="#5E5E5E" d="M87.848,352.738v-2.593c0-1.017-0.369-1.524-1.107-1.524c-0.196,0-0.378,0.038-0.545,0.116
			c-0.167,0.077-0.312,0.186-0.433,0.323c-0.122,0.138-0.217,0.301-0.286,0.489c-0.068,0.189-0.104,0.394-0.104,0.613v2.575h-0.563
			v-4.5h0.563v0.782h0.018c0.334-0.592,0.837-0.888,1.508-0.888c0.492,0,0.867,0.16,1.125,0.479c0.258,0.32,0.387,0.781,0.387,1.385
			v2.742H87.848z"/>
		<path fill="#5E5E5E" d="M91.698,352.686c-0.193,0.097-0.404,0.145-0.633,0.145c-0.727,0-1.09-0.418-1.09-1.256v-2.844h-0.791
			v-0.492h0.791v-1.134l0.563-0.185v1.318h1.16v0.492h-1.16v2.756c0,0.305,0.05,0.524,0.15,0.658
			c0.099,0.136,0.268,0.203,0.505,0.203c0.176,0,0.344-0.053,0.505-0.158V352.686z"/>
		<path fill="#5E5E5E" d="M94.858,348.814c-0.131-0.098-0.302-0.146-0.51-0.146c-0.148,0-0.281,0.028-0.395,0.086
			c-0.115,0.057-0.215,0.134-0.302,0.23c-0.086,0.097-0.159,0.209-0.22,0.336c-0.06,0.128-0.108,0.261-0.145,0.397
			c-0.037,0.139-0.063,0.277-0.079,0.418c-0.017,0.141-0.024,0.274-0.024,0.4v2.201h-0.559v-4.5h0.559v0.963h0.018
			c0.053-0.164,0.119-0.312,0.2-0.442c0.08-0.13,0.173-0.24,0.278-0.329c0.105-0.09,0.221-0.157,0.346-0.205
			c0.124-0.046,0.255-0.07,0.393-0.07c0.091,0,0.173,0.007,0.244,0.018c0.072,0.013,0.137,0.03,0.195,0.053V348.814z"/>
		<path fill="#5E5E5E" d="M98.268,352.738v-0.8H98.25c-0.147,0.287-0.347,0.51-0.601,0.668c-0.253,0.158-0.54,0.237-0.858,0.237
			c-0.218,0-0.413-0.031-0.587-0.092c-0.175-0.063-0.322-0.149-0.444-0.262c-0.121-0.113-0.215-0.248-0.281-0.406
			c-0.065-0.158-0.099-0.333-0.099-0.523c0-0.407,0.126-0.731,0.378-0.974c0.252-0.241,0.633-0.398,1.143-0.472l1.367-0.198
			c0-0.864-0.336-1.296-1.007-1.296c-0.524,0-1.011,0.191-1.459,0.575v-0.615c0.094-0.067,0.2-0.128,0.318-0.183
			c0.119-0.054,0.244-0.101,0.376-0.141c0.132-0.039,0.268-0.07,0.406-0.092c0.14-0.022,0.275-0.033,0.406-0.033
			c0.502,0,0.88,0.141,1.137,0.422c0.256,0.281,0.385,0.7,0.385,1.257v2.927H98.268z M97.108,350.555
			c-0.203,0.029-0.376,0.065-0.52,0.109s-0.262,0.104-0.355,0.178c-0.094,0.075-0.162,0.167-0.207,0.277
			c-0.043,0.109-0.065,0.245-0.065,0.406c0,0.12,0.021,0.231,0.063,0.334c0.043,0.103,0.104,0.191,0.185,0.266
			c0.081,0.075,0.179,0.133,0.295,0.174c0.115,0.041,0.246,0.062,0.394,0.062c0.198,0,0.382-0.038,0.549-0.114
			s0.312-0.182,0.433-0.316c0.122-0.135,0.217-0.296,0.286-0.483c0.068-0.188,0.104-0.392,0.104-0.61v-0.444L97.108,350.555z"/>
		<path fill="#5E5E5E" d="M103.34,352.738v-0.791h-0.018c-0.15,0.284-0.363,0.505-0.64,0.661c-0.277,0.157-0.591,0.235-0.942,0.235
			c-0.281,0-0.537-0.052-0.768-0.156c-0.229-0.104-0.427-0.254-0.591-0.45s-0.291-0.434-0.38-0.712
			c-0.09-0.278-0.135-0.594-0.135-0.945c0-0.362,0.05-0.694,0.147-0.995c0.099-0.3,0.237-0.558,0.418-0.773
			c0.18-0.215,0.396-0.382,0.65-0.501c0.253-0.118,0.535-0.178,0.846-0.178c0.647,0,1.112,0.26,1.394,0.777h0.018v-2.834h0.563
			v6.662H103.34z M103.34,350.022c0-0.196-0.034-0.379-0.102-0.55c-0.067-0.169-0.161-0.317-0.281-0.443s-0.265-0.226-0.433-0.299
			c-0.169-0.073-0.354-0.109-0.556-0.109c-0.224,0-0.429,0.043-0.615,0.131c-0.188,0.088-0.349,0.215-0.481,0.381
			c-0.134,0.165-0.237,0.367-0.313,0.604c-0.074,0.238-0.112,0.508-0.112,0.809c0,0.285,0.034,0.54,0.102,0.766
			s0.163,0.416,0.288,0.57c0.124,0.156,0.272,0.274,0.446,0.356c0.172,0.082,0.364,0.123,0.575,0.123
			c0.229,0,0.435-0.041,0.617-0.123c0.184-0.082,0.339-0.194,0.466-0.339c0.128-0.143,0.226-0.312,0.295-0.505
			c0.068-0.193,0.104-0.399,0.104-0.62V350.022z"/>
		<path fill="#5E5E5E" d="M107.945,352.738v-0.8h-0.018c-0.146,0.287-0.346,0.51-0.6,0.668s-0.541,0.237-0.859,0.237
			c-0.217,0-0.412-0.031-0.586-0.092c-0.175-0.063-0.322-0.149-0.444-0.262c-0.121-0.113-0.215-0.248-0.281-0.406
			c-0.065-0.158-0.099-0.333-0.099-0.523c0-0.407,0.126-0.731,0.378-0.974c0.252-0.241,0.632-0.398,1.142-0.472l1.367-0.198
			c0-0.864-0.336-1.296-1.006-1.296c-0.525,0-1.011,0.191-1.459,0.575v-0.615c0.094-0.067,0.2-0.128,0.318-0.183
			c0.119-0.054,0.245-0.101,0.375-0.141c0.133-0.039,0.268-0.07,0.406-0.092c0.141-0.022,0.275-0.033,0.406-0.033
			c0.502,0,0.881,0.141,1.137,0.422s0.385,0.7,0.385,1.257v2.927H107.945z M106.785,350.555c-0.203,0.029-0.375,0.065-0.52,0.109
			c-0.143,0.044-0.262,0.104-0.355,0.178c-0.094,0.075-0.162,0.167-0.207,0.277c-0.043,0.109-0.065,0.245-0.065,0.406
			c0,0.12,0.021,0.231,0.063,0.334c0.043,0.103,0.104,0.191,0.185,0.266c0.081,0.075,0.178,0.133,0.295,0.174
			c0.115,0.041,0.246,0.062,0.393,0.062c0.199,0,0.383-0.038,0.549-0.114c0.168-0.076,0.313-0.182,0.434-0.316
			s0.217-0.296,0.285-0.483s0.104-0.392,0.104-0.61v-0.444L106.785,350.555z"/>
		<path fill="#5E5E5E" d="M115.48,352.738v-0.791h-0.018c-0.148,0.284-0.361,0.505-0.639,0.661
			c-0.277,0.157-0.592,0.235-0.943,0.235c-0.281,0-0.535-0.052-0.766-0.156c-0.23-0.104-0.428-0.254-0.592-0.45
			s-0.291-0.434-0.379-0.712c-0.09-0.278-0.135-0.594-0.135-0.945c0-0.362,0.049-0.694,0.146-0.995c0.1-0.3,0.238-0.558,0.418-0.773
			c0.18-0.215,0.396-0.382,0.65-0.501c0.254-0.118,0.535-0.178,0.846-0.178c0.648,0,1.111,0.26,1.393,0.777h0.018v-2.834h0.563
			v6.662H115.48z M115.48,350.022c0-0.196-0.033-0.379-0.1-0.55c-0.068-0.169-0.162-0.317-0.281-0.443
			c-0.121-0.126-0.266-0.226-0.434-0.299s-0.354-0.109-0.557-0.109c-0.223,0-0.428,0.043-0.615,0.131s-0.348,0.215-0.48,0.381
			c-0.133,0.165-0.236,0.367-0.313,0.604c-0.074,0.238-0.111,0.508-0.111,0.809c0,0.285,0.033,0.54,0.102,0.766
			c0.066,0.226,0.162,0.416,0.287,0.57c0.125,0.156,0.273,0.274,0.445,0.356c0.174,0.082,0.365,0.123,0.576,0.123
			c0.229,0,0.436-0.041,0.617-0.123c0.184-0.082,0.34-0.194,0.467-0.339c0.127-0.143,0.225-0.312,0.295-0.505
			c0.068-0.193,0.102-0.399,0.102-0.62V350.022z"/>
		<path fill="#5E5E5E" d="M120.086,352.738v-0.8h-0.018c-0.146,0.287-0.346,0.51-0.6,0.668c-0.252,0.158-0.539,0.237-0.859,0.237
			c-0.217,0-0.412-0.031-0.586-0.092c-0.174-0.063-0.322-0.149-0.443-0.262c-0.121-0.113-0.215-0.248-0.281-0.406
			s-0.1-0.333-0.1-0.523c0-0.407,0.127-0.731,0.379-0.974c0.252-0.241,0.633-0.398,1.143-0.472l1.365-0.198
			c0-0.864-0.334-1.296-1.006-1.296c-0.523,0-1.01,0.191-1.459,0.575v-0.615c0.094-0.067,0.201-0.128,0.318-0.183
			c0.119-0.054,0.244-0.101,0.377-0.141c0.131-0.039,0.268-0.07,0.406-0.092c0.139-0.022,0.273-0.033,0.406-0.033
			c0.5,0,0.879,0.141,1.137,0.422c0.256,0.281,0.383,0.7,0.383,1.257v2.927H120.086z M118.926,350.555
			c-0.201,0.029-0.375,0.065-0.518,0.109c-0.145,0.044-0.262,0.104-0.355,0.178c-0.094,0.075-0.164,0.167-0.207,0.277
			c-0.045,0.109-0.066,0.245-0.066,0.406c0,0.12,0.021,0.231,0.064,0.334s0.104,0.191,0.184,0.266
			c0.082,0.075,0.18,0.133,0.295,0.174s0.246,0.062,0.393,0.062c0.199,0,0.383-0.038,0.551-0.114
			c0.166-0.076,0.311-0.182,0.432-0.316c0.123-0.135,0.217-0.296,0.287-0.483c0.068-0.188,0.102-0.392,0.102-0.61v-0.444
			L118.926,350.555z"/>
		<path fill="#5E5E5E" d="M121.748,351.93c0.084,0.067,0.178,0.127,0.277,0.18s0.201,0.099,0.307,0.137s0.213,0.066,0.318,0.086
			c0.107,0.019,0.209,0.028,0.307,0.028c0.668,0,1.002-0.251,1.002-0.751c0-0.115-0.023-0.214-0.07-0.297
			c-0.047-0.084-0.115-0.16-0.203-0.229c-0.088-0.069-0.193-0.133-0.316-0.191s-0.262-0.12-0.418-0.185
			c-0.207-0.085-0.387-0.171-0.535-0.259c-0.15-0.088-0.273-0.185-0.369-0.288c-0.098-0.104-0.168-0.219-0.215-0.343
			c-0.047-0.125-0.07-0.266-0.07-0.424c0-0.199,0.043-0.377,0.129-0.532s0.203-0.287,0.35-0.396s0.316-0.191,0.508-0.248
			c0.191-0.058,0.393-0.086,0.604-0.086c0.391,0,0.73,0.073,1.02,0.22v0.593c-0.336-0.216-0.699-0.324-1.09-0.324
			c-0.141,0-0.268,0.018-0.385,0.053c-0.115,0.035-0.215,0.085-0.297,0.148c-0.082,0.065-0.145,0.142-0.189,0.231
			c-0.047,0.089-0.068,0.188-0.068,0.296c0,0.112,0.018,0.209,0.053,0.293c0.035,0.083,0.09,0.159,0.164,0.227
			s0.172,0.131,0.291,0.193c0.117,0.061,0.262,0.127,0.432,0.197c0.217,0.088,0.404,0.175,0.563,0.262
			c0.158,0.086,0.289,0.18,0.391,0.281c0.104,0.101,0.18,0.214,0.229,0.338c0.051,0.125,0.076,0.27,0.076,0.434
			c0,0.201-0.043,0.382-0.125,0.54c-0.084,0.158-0.199,0.292-0.348,0.399c-0.148,0.109-0.322,0.191-0.521,0.246
			c-0.199,0.056-0.416,0.084-0.65,0.084c-0.453,0-0.836-0.096-1.146-0.285V351.93z"/>
		<path fill="#5E5E5E" d="M127.869,351.93c0.084,0.067,0.178,0.127,0.277,0.18s0.201,0.099,0.307,0.137s0.213,0.066,0.318,0.086
			c0.107,0.019,0.209,0.028,0.307,0.028c0.668,0,1.002-0.251,1.002-0.751c0-0.115-0.023-0.214-0.07-0.297
			c-0.047-0.084-0.115-0.16-0.203-0.229c-0.088-0.069-0.193-0.133-0.316-0.191s-0.262-0.12-0.418-0.185
			c-0.207-0.085-0.387-0.171-0.535-0.259c-0.15-0.088-0.273-0.185-0.369-0.288c-0.098-0.104-0.168-0.219-0.215-0.343
			c-0.047-0.125-0.07-0.266-0.07-0.424c0-0.199,0.043-0.377,0.129-0.532s0.203-0.287,0.35-0.396s0.316-0.191,0.508-0.248
			c0.191-0.058,0.393-0.086,0.604-0.086c0.391,0,0.73,0.073,1.02,0.22v0.593c-0.336-0.216-0.699-0.324-1.09-0.324
			c-0.141,0-0.268,0.018-0.385,0.053c-0.115,0.035-0.215,0.085-0.297,0.148c-0.082,0.065-0.145,0.142-0.189,0.231
			c-0.047,0.089-0.068,0.188-0.068,0.296c0,0.112,0.018,0.209,0.053,0.293c0.035,0.083,0.09,0.159,0.164,0.227
			s0.172,0.131,0.291,0.193c0.117,0.061,0.262,0.127,0.432,0.197c0.217,0.088,0.404,0.175,0.563,0.262
			c0.158,0.086,0.289,0.18,0.391,0.281c0.104,0.101,0.18,0.214,0.229,0.338c0.051,0.125,0.076,0.27,0.076,0.434
			c0,0.201-0.043,0.382-0.125,0.54c-0.084,0.158-0.199,0.292-0.348,0.399c-0.148,0.109-0.322,0.191-0.521,0.246
			c-0.199,0.056-0.416,0.084-0.65,0.084c-0.453,0-0.836-0.096-1.146-0.285V351.93z"/>
		<path fill="#5E5E5E" d="M134.373,352.738v-0.8h-0.018c-0.146,0.287-0.346,0.51-0.6,0.668s-0.541,0.237-0.859,0.237
			c-0.217,0-0.412-0.031-0.586-0.092c-0.176-0.063-0.322-0.149-0.445-0.262c-0.121-0.113-0.215-0.248-0.281-0.406
			c-0.064-0.158-0.098-0.333-0.098-0.523c0-0.407,0.125-0.731,0.377-0.974c0.252-0.241,0.633-0.398,1.143-0.472l1.367-0.198
			c0-0.864-0.336-1.296-1.006-1.296c-0.525,0-1.012,0.191-1.459,0.575v-0.615c0.094-0.067,0.199-0.128,0.318-0.183
			c0.119-0.054,0.244-0.101,0.375-0.141c0.133-0.039,0.268-0.07,0.406-0.092c0.141-0.022,0.275-0.033,0.406-0.033
			c0.502,0,0.881,0.141,1.137,0.422s0.385,0.7,0.385,1.257v2.927H134.373z M133.213,350.555c-0.203,0.029-0.375,0.065-0.52,0.109
			c-0.143,0.044-0.262,0.104-0.355,0.178c-0.094,0.075-0.162,0.167-0.207,0.277c-0.043,0.109-0.064,0.245-0.064,0.406
			c0,0.12,0.021,0.231,0.063,0.334c0.043,0.103,0.105,0.191,0.186,0.266c0.08,0.075,0.178,0.133,0.295,0.174
			c0.115,0.041,0.246,0.062,0.393,0.062c0.199,0,0.383-0.038,0.549-0.114c0.168-0.076,0.313-0.182,0.434-0.316
			s0.217-0.296,0.285-0.483s0.104-0.392,0.104-0.61v-0.444L133.213,350.555z"/>
		<path fill="#5E5E5E" d="M136.289,352.738v-6.662h0.563v6.662H136.289z"/>
		<path fill="#5E5E5E" d="M140.895,352.738v-0.8h-0.018c-0.146,0.287-0.346,0.51-0.6,0.668s-0.541,0.237-0.859,0.237
			c-0.217,0-0.412-0.031-0.586-0.092c-0.176-0.063-0.322-0.149-0.445-0.262c-0.121-0.113-0.215-0.248-0.281-0.406
			c-0.064-0.158-0.098-0.333-0.098-0.523c0-0.407,0.125-0.731,0.377-0.974c0.252-0.241,0.633-0.398,1.143-0.472l1.367-0.198
			c0-0.864-0.336-1.296-1.006-1.296c-0.525,0-1.012,0.191-1.459,0.575v-0.615c0.094-0.067,0.199-0.128,0.318-0.183
			c0.119-0.054,0.244-0.101,0.375-0.141c0.133-0.039,0.268-0.07,0.406-0.092c0.141-0.022,0.275-0.033,0.406-0.033
			c0.502,0,0.881,0.141,1.137,0.422s0.385,0.7,0.385,1.257v2.927H140.895z M139.734,350.555c-0.203,0.029-0.375,0.065-0.52,0.109
			c-0.143,0.044-0.262,0.104-0.355,0.178c-0.094,0.075-0.162,0.167-0.207,0.277c-0.043,0.109-0.064,0.245-0.064,0.406
			c0,0.12,0.021,0.231,0.063,0.334c0.043,0.103,0.105,0.191,0.186,0.266c0.08,0.075,0.178,0.133,0.295,0.174
			c0.115,0.041,0.246,0.062,0.393,0.062c0.199,0,0.383-0.038,0.549-0.114c0.168-0.076,0.313-0.182,0.434-0.316
			s0.217-0.296,0.285-0.483s0.104-0.392,0.104-0.61v-0.444L139.734,350.555z"/>
		<path fill="#5E5E5E" d="M142.557,351.93c0.084,0.067,0.178,0.127,0.277,0.18s0.201,0.099,0.307,0.137s0.213,0.066,0.318,0.086
			c0.107,0.019,0.209,0.028,0.307,0.028c0.668,0,1.002-0.251,1.002-0.751c0-0.115-0.023-0.214-0.07-0.297
			c-0.047-0.084-0.115-0.16-0.203-0.229c-0.088-0.069-0.193-0.133-0.316-0.191s-0.262-0.12-0.418-0.185
			c-0.207-0.085-0.387-0.171-0.535-0.259c-0.15-0.088-0.273-0.185-0.369-0.288c-0.098-0.104-0.168-0.219-0.215-0.343
			c-0.047-0.125-0.07-0.266-0.07-0.424c0-0.199,0.043-0.377,0.129-0.532s0.203-0.287,0.35-0.396s0.316-0.191,0.508-0.248
			c0.191-0.058,0.393-0.086,0.604-0.086c0.391,0,0.73,0.073,1.02,0.22v0.593c-0.336-0.216-0.699-0.324-1.09-0.324
			c-0.141,0-0.268,0.018-0.385,0.053c-0.115,0.035-0.215,0.085-0.297,0.148c-0.082,0.065-0.145,0.142-0.189,0.231
			c-0.047,0.089-0.068,0.188-0.068,0.296c0,0.112,0.018,0.209,0.053,0.293c0.035,0.083,0.09,0.159,0.164,0.227
			s0.172,0.131,0.291,0.193c0.117,0.061,0.262,0.127,0.432,0.197c0.217,0.088,0.404,0.175,0.563,0.262
			c0.158,0.086,0.289,0.18,0.391,0.281c0.104,0.101,0.18,0.214,0.229,0.338c0.051,0.125,0.076,0.27,0.076,0.434
			c0,0.201-0.043,0.382-0.125,0.54c-0.084,0.158-0.199,0.292-0.348,0.399c-0.148,0.109-0.322,0.191-0.521,0.246
			c-0.199,0.056-0.416,0.084-0.65,0.084c-0.453,0-0.836-0.096-1.146-0.285V351.93z"/>
		<path fill="#5E5E5E" d="M146.727,352.826c-0.117,0-0.217-0.041-0.299-0.123s-0.123-0.182-0.123-0.299
			c0-0.12,0.041-0.221,0.121-0.303s0.182-0.123,0.301-0.123c0.059,0,0.113,0.011,0.166,0.032c0.051,0.022,0.096,0.052,0.133,0.088
			c0.039,0.037,0.068,0.081,0.092,0.134s0.035,0.11,0.035,0.172c0,0.059-0.012,0.113-0.035,0.165
			c-0.023,0.051-0.053,0.096-0.092,0.134c-0.037,0.038-0.082,0.068-0.133,0.09C146.84,352.815,146.785,352.826,146.727,352.826z"/>
	</g>
	<g>
		<path fill="#00AADC" d="M21.116,324.488c-3.412,0-6.178,2.123-6.178,4.742c0,1.343,0.73,2.554,1.898,3.415
			c-0.4,0.594-0.987,1.288-1.849,2.059c1.969,0.33,3.243-0.232,4.073-1.006c0.644,0.175,1.333,0.274,2.055,0.274
			c3.41,0,6.176-2.123,6.176-4.742S24.526,324.488,21.116,324.488z"/>
	</g>
</g>
</svg>
