<?xml version="1.0" encoding="utf-8"?>
<!-- Generator: Adobe Illustrator 16.0.0, SVG Export Plug-In . SVG Version: 6.00 Build 0)  -->
<!DOCTYPE svg PUBLIC "-//W3C//DTD SVG 1.1//EN" "http://www.w3.org/Graphics/SVG/1.1/DTD/svg11.dtd">
<svg version="1.1" id="Layer_1" xmlns="http://www.w3.org/2000/svg" xmlns:xlink="http://www.w3.org/1999/xlink" x="0px" y="0px"
	 width="210px" height="365px" viewBox="0 0 210 365" enable-background="new 0 0 210 365" xml:space="preserve">
<rect y="0.5" fill="#F2F2F2" width="210" height="365"/>
<g>
	<rect y="0.5" fill="#EBEBEB" width="210" height="40"/>
	<rect y="40.5" fill="#DBDADA" width="210" height="1"/>
</g>
<g>
	<path fill-rule="evenodd" clip-rule="evenodd" fill="#333333" d="M29.572,12.221c0.044,0,0.088,0,0.132,0
		c0.09,0.061,0.175,0.13,0.271,0.181c5.479,2.923,10.961,5.845,16.44,8.764c0.086,0.046,0.181,0.075,0.27,0.11
		c0,0.023,0,0.047,0,0.068c-1.011,0.547-2.022,1.092-3.027,1.652c-0.073,0.042-0.11,0.203-0.111,0.309
		c-0.01,0.921-0.013,1.843,0.002,2.762c0.001,0.119,0.077,0.271,0.167,0.347c0.428,0.36,0.497,0.931,0.138,1.322
		c-0.344,0.38-0.957,0.382-1.303,0.006c-0.365-0.398-0.306-0.952,0.118-1.322c0.099-0.087,0.175-0.251,0.18-0.382
		c0.019-0.586,0.007-1.174,0.007-1.764c0-0.258,0-0.518,0-0.844c-1.002,0.615-1.934,1.188-2.862,1.764
		c-0.047,0.029-0.095,0.104-0.096,0.156c-0.003,0.831-0.032,1.665,0.015,2.492c0.018,0.3-0.031,0.522-0.253,0.66
		c-0.358,0.217-0.731,0.427-1.122,0.559c-1.547,0.52-3.153,0.732-4.768,0.858c-3.603,0.281-7.201,0.264-10.779-0.322
		c-0.996-0.163-1.987-0.356-2.905-0.798c-0.455-0.217-0.8-0.462-0.716-1.102c0.09-0.697,0.007-1.418,0.024-2.129
		c0.007-0.249-0.087-0.369-0.292-0.486c-2.094-1.205-4.183-2.42-6.274-3.631c-0.074-0.042-0.156-0.072-0.234-0.107
		c0-0.021,0-0.045,0-0.068c0.08-0.029,0.166-0.051,0.242-0.09c5.499-2.933,10.998-5.867,16.495-8.803
		C29.415,12.338,29.492,12.275,29.572,12.221z M30.646,26.723c-3.445,0.063-5.895,0.107-8.314,0.554
		c-0.528,0.099-1.042,0.281-1.555,0.455c-0.112,0.037-0.252,0.199-0.252,0.304c0.003,0.103,0.144,0.242,0.258,0.303
		c0.215,0.11,0.446,0.193,0.681,0.256c1.453,0.389,2.946,0.513,4.438,0.602c3.236,0.193,6.474,0.184,9.697-0.209
		c0.907-0.11,1.803-0.34,2.692-0.555c0.184-0.044,0.321-0.265,0.479-0.403c-0.161-0.139-0.3-0.351-0.483-0.398
		c-0.714-0.195-1.435-0.415-2.165-0.483C33.971,26.944,31.813,26.811,30.646,26.723z M39.649,23.296
		c0.061-0.661,0.023-0.726-0.504-1.159c-1.107-0.92-2.413-1.426-3.783-1.788c-1.823-0.485-3.689-0.64-5.566-0.646
		c-2.29-0.004-4.563,0.181-6.758,0.904c-1.146,0.378-2.213,0.897-3.123,1.714c-0.305,0.274-0.361,0.575-0.28,0.95
		c0.35-0.249,0.675-0.513,1.029-0.726c1.45-0.872,3.055-1.288,4.709-1.526c2.659-0.383,5.329-0.403,7.992-0.07
		C35.628,21.233,37.813,21.747,39.649,23.296z"/>
	<path fill-rule="evenodd" clip-rule="evenodd" fill="#EE4156" d="M44.062,32.178c-0.955-0.265-1.414,0.395-1.959,1.043
		c0.125-1.695,0.242-3.309,0.359-4.893c0.545,0,1.062,0,1.6,0C44.062,29.559,44.062,30.859,44.062,32.178z"/>
	<g>
		<path fill="#333333" d="M79.919,15.974v3.155h-0.962v6.819l-2.122,2.121h-4.442l-2.104-2.121v-6.819h-0.942v-3.155h5.041v3.046
			h-0.471v5.876h1.449V19.02h-0.47v-3.046H79.919z M78.849,17.008h-2.992v1.105h0.581v7.144l-0.689,0.691h-2.25l-0.652-0.691v-7.144
			h0.581v-1.105h-2.992v1.105h0.943v7.382l1.468,1.521h3.518l1.524-1.451v-7.452h0.961V17.008z"/>
		<path fill="#333333" d="M92.686,15.974v3.155h-0.833v8.94h-3.175l-3.265-6.057v2.955h0.962v3.102h-4.879v-3.174h0.854v-5.767
			h-0.854v-3.155h4.39l2.9,5.439v-2.411h-0.852v-3.028H92.686z M91.616,17.008h-2.685v1.105h0.744v6.854l-4.461-7.96h-2.631v1.105
			h0.853v7.835h-0.853v1.068h2.775v-1.068h-0.835v-7.473l4.789,8.541h1.467v-8.903h0.836V17.008z"/>
		<path fill="#333333" d="M99.596,15.974v3.155h-0.835v5.767h0.835v3.174h-5.277v-3.174h0.834v-5.767h-0.834v-3.155H99.596z
			 M98.525,17.008h-3.12v1.105h0.816v7.835h-0.816v1.068h3.12v-1.068h-0.836v-7.835h0.836V17.008z"/>
		<path fill="#333333" d="M111.999,15.974v3.155h-1.251l-2.829,8.94h-3.011l-2.955-8.94H100.7v-3.155h5.277v3.155h-0.599
			l0.998,3.047l0.962-3.047h-0.617v-3.155H111.999z M111.056,17.008h-3.265v1.105h0.889l-2.285,7.164l-2.338-7.164h0.852v-1.105
			h-3.139v1.105h0.998l2.92,8.903h1.416l2.847-8.903h1.105V17.008z"/>
		<path fill="#333333" d="M122.337,15.974v3.88h-3.249v-0.725h-1.559v1.286h2.865V23.5h-2.865v1.396h1.559v-0.87h3.249v4.044h-9.269
			v-3.174h0.835v-5.767h-0.835v-3.155H122.337z M121.248,17.008h-7.091v1.105h0.835v7.835h-0.835v1.068h7.091v-1.921h-1.09v0.853
			h-3.735V22.43h2.902V21.45h-2.902v-3.337h3.735v0.708h1.09V17.008z"/>
		<path fill="#333333" d="M134.34,24.896v3.174h-4.822v-2.993h0.272l-0.707-1.541h-0.782v1.541h0.636v2.993h-4.968v-3.174h0.853
			v-5.767h-0.853v-3.155h7.346l2.048,2.085v3.392l-1.124,1.124l1.07,2.321H134.34z M133.309,25.93h-0.708l-1.632-3.5l1.324-1.307
			v-2.61l-1.488-1.505h-5.748v1.105h0.833v7.816h-0.833v1.087h2.884V25.93h-0.599v-3.355h2.357l1.541,3.355h-0.671v1.087h2.739
			V25.93z M130.95,18.783v1.922l-0.761,0.764h-2.848v-3.355h2.918L130.95,18.783z M129.862,19.129h-1.432v1.252h1.432V19.129z"/>
		<path fill="#333333" d="M144.025,21.886v4.063l-2.158,2.121h-4.389l-2.014-2.05v-2.211h3.5v1.087h1.471v-1.722h-3.446
			l-1.614-1.669v-3.463l2.104-2.068h4.497l1.904,1.939v1.995h-3.354v-0.779h-1.562v1.161h3.521L144.025,21.886z M142.973,22.32
			l-1.069-1.071h-3.591l-0.417-0.416v-2.05l0.689-0.67h2.286l0.634,0.67v0.184h1.468v-0.454l-1.468-1.505h-3.519l-1.523,1.505v2.575
			l1.106,1.123h3.554l0.382,0.418v2.611l-0.726,0.708h-2.194l-0.689-0.708v-0.508h-1.433v0.744l1.523,1.54h3.373l1.613-1.54V22.32z"
			/>
		<path fill="#333333" d="M150.917,15.974v3.155h-0.834v5.767h0.834v3.174h-5.278v-3.174h0.835v-5.767h-0.835v-3.155H150.917z
			 M149.847,17.008h-3.121v1.105h0.818v7.835h-0.818v1.068h3.121v-1.068h-0.835v-7.835h0.835V17.008z"/>
		<path fill="#333333" d="M162.559,15.974v4.426h-2.811v-1.271h-0.6v5.767h0.871v3.174h-5.295v-3.174h0.871v-5.767h-0.527v1.271
			h-2.863v-4.426H162.559z M161.544,17.008h-8.307V19.4h0.979v-1.287h2.43v7.835h-0.853v1.068h3.158v-1.068h-0.837v-7.835h2.468
			V19.4h0.961V17.008z"/>
		<path fill="#333333" d="M173.331,15.974v3.155h-1.071l-2.302,4.371v1.396h0.853v3.174h-5.295v-3.174h0.852V23.5l-2.304-4.371
			h-1.068v-3.155h4.823v2.974h-0.363l0.743,1.396l0.744-1.396h-0.362v-2.974H173.331z M172.26,17.008h-2.647v1.105h0.6l-2.031,3.88
			l-2.085-3.88h0.634v-1.105h-2.666v1.105h0.653l2.738,5.096v2.739h-0.851v1.068h3.136v-1.068h-0.853v-2.739l2.702-5.096h0.67
			V17.008z"/>
	</g>
	<g>
		<g>
			<path fill="#333333" d="M53.331,29.471h1.454v-4.36h-1.454V29.471z M51.516,18.33l1.076-0.848h1.104v-1.453h-1.725l-1.909,1.679
				v8.276l2.013,2.032h0.53l0.04-1.453l-1.13-1.148V18.33z M56.146,16.029h-1.726v1.453h1.104l1.077,0.848v7.085l-1.13,1.148
				l0.039,1.453h0.53l2.013-2.032v-8.276L56.146,16.029z"/>
		</g>
	</g>
	<g>
		<g>
			<path fill="#333333" d="M61.909,15.974h-2.566v1.466h1.103v9.163h-1.103v1.467h3.666v-1.467h-1.1V15.974z M67.151,26.603
				l-2.037-3.665h0.991l1.669-1.976v-3.451l-1.721-1.537h-3.411v1.466h2.748l0.919,0.732v2.423l-0.919,0.878h-2.748v1.465h0.891
				l2.032,3.665h-1.09v1.467h3.664v-1.467H67.151z"/>
		</g>
	</g>
</g>
<path fill="#EE4156" d="M197.613,27.482c0.658-0.658,0.641-1.752-0.038-2.432l-1.815-1.814c-0.679-0.679-0.68-1.793-0.001-2.473
	l1.815-1.814c0.68-0.68,0.697-1.773,0.039-2.434c-0.657-0.655-1.752-0.638-2.432,0.041l-1.814,1.814
	c-0.679,0.681-1.793,0.68-2.473,0l-1.815-1.816c-0.679-0.678-1.772-0.696-2.431-0.037c-0.659,0.659-0.644,1.755,0.036,2.434
	l1.814,1.816c0.679,0.679,0.683,1.79,0.004,2.469l-1.815,1.814c-0.682,0.683-0.696,1.774-0.041,2.432
	c0.659,0.658,1.752,0.642,2.433-0.039l1.815-1.816c0.68-0.678,1.791-0.675,2.47,0.006l1.816,1.814
	C195.859,28.126,196.955,28.143,197.613,27.482z"/>
<g>
	<circle fill="#333333" cx="105" cy="339.982" r="22.5"/>
	<circle fill="#EE4156" cx="105" cy="339.982" r="9.739"/>
</g>
</svg>
